Calibracion/Ensayo de distorsión armónica/Oscilogramas THD/TEK0018.CSV

Record Length,2.500000e+03,,   0.398750000000,  -2.92000,
Sample Interval,1.000000e-06,,   0.398751000000,  -2.96000,
Trigger Point,-3.987500000000e+05,,   0.398752000000,  -3.00000,
,,,   0.398753000000,  -3.00000,
,,,   0.398754000000,  -3.04000,
,,,   0.398755000000,  -3.08000,
Source,CH1,,   0.398756000000,  -3.12000,
Vertical Units,V,,   0.398757000000,  -3.12000,
Vertical Scale,1.000000e+00,,   0.398758000000,  -3.12000,
Vertical Offset,0.000000e+00,,   0.398759000000,  -3.16000,
Horizontal Units,s,,   0.398760000000,  -3.20000,
Horizontal Scale,2.500000e-04,,   0.398761000000,  -3.20000,
Pt Fmt,Y,,   0.398762000000,  -3.16000,
Yzero,0.000000e+00,,   0.398763000000,  -3.24000,
Probe Atten,1.000000e+00,,   0.398764000000,  -3.24000,
Model Number,TDS2014C,,   0.398765000000,  -3.20000,
Serial Number,C013080,,   0.398766000000,  -3.20000,
Firmware Version,FV:v24.15,,   0.398767000000,  -3.24000,
,,,0.398768000000,  -3.20000,
,,,0.398769000000,  -3.20000,
,,,0.398770000000,  -3.20000,
,,,0.398771000000,  -3.20000,
,,,0.398772000000,  -3.20000,
,,,0.398773000000,  -3.20000,
,,,0.398774000000,  -3.16000,
,,,0.398775000000,  -3.16000,
,,,0.398776000000,  -3.12000,
,,,0.398777000000,  -3.12000,
,,,0.398778000000,  -3.08000,
,,,0.398779000000,  -3.04000,
,,,0.398780000000,  -3.04000,
,,,0.398781000000,  -3.00000,
,,,0.398782000000,  -2.96000,
,,,0.398783000000,  -2.92000,
,,,0.398784000000,  -2.88000,
,,,0.398785000000,  -2.84000,
,,,0.398786000000,  -2.80000,
,,,0.398787000000,  -2.76000,
,,,0.398788000000,  -2.72000,
,,,0.398789000000,  -2.68000,
,,,0.398790000000,  -2.64000,
,,,0.398791000000,  -2.60000,
,,,0.398792000000,  -2.52000,
,,,0.398793000000,  -2.48000,
,,,0.398794000000,  -2.44000,
,,,0.398795000000,  -2.40000,
,,,0.398796000000,  -2.28000,
,,,0.398797000000,  -2.24000,
,,,0.398798000000,  -2.16000,
,,,0.398799000000,  -2.12000,
,,,0.398800000000,  -2.04000,
,,,0.398801000000,  -2.00000,
,,,0.398802000000,  -1.92000,
,,,0.398803000000,  -1.84000,
,,,0.398804000000,  -1.80000,
,,,0.398805000000,  -1.72000,
,,,0.398806000000,  -1.64000,
,,,0.398807000000,  -1.56000,
,,,0.398808000000,  -1.48000,
,,,0.398809000000,  -1.44000,
,,,0.398810000000,  -1.36000,
,,,0.398811000000,  -1.28000,
,,,0.398812000000,  -1.20000,
,,,0.398813000000,  -1.12000,
,,,0.398814000000,  -1.04000,
,,,0.398815000000,  -0.96000,
,,,0.398816000000,  -0.88000,
,,,0.398817000000,  -0.80000,
,,,0.398818000000,  -0.72000,
,,,0.398819000000,  -0.60000,
,,,0.398820000000,  -0.56000,
,,,0.398821000000,  -0.44000,
,,,0.398822000000,  -0.36000,
,,,0.398823000000,  -0.28000,
,,,0.398824000000,  -0.24000,
,,,0.398825000000,  -0.12000,
,,,0.398826000000,   0.00000,
,,,0.398827000000,   0.04000,
,,,0.398828000000,   0.16000,
,,,0.398829000000,   0.24000,
,,,0.398830000000,   0.32000,
,,,0.398831000000,   0.40000,
,,,0.398832000000,   0.48000,
,,,0.398833000000,   0.56000,
,,,0.398834000000,   0.60000,
,,,0.398835000000,   0.72000,
,,,0.398836000000,   0.84000,
,,,0.398837000000,   0.88000,
,,,0.398838000000,   1.00000,
,,,0.398839000000,   1.04000,
,,,0.398840000000,   1.16000,
,,,0.398841000000,   1.24000,
,,,0.398842000000,   1.32000,
,,,0.398843000000,   1.36000,
,,,0.398844000000,   1.48000,
,,,0.398845000000,   1.52000,
,,,0.398846000000,   1.60000,
,,,0.398847000000,   1.68000,
,,,0.398848000000,   1.76000,
,,,0.398849000000,   1.84000,
,,,0.398850000000,   1.88000,
,,,0.398851000000,   1.96000,
,,,0.398852000000,   2.04000,
,,,0.398853000000,   2.12000,
,,,0.398854000000,   2.16000,
,,,0.398855000000,   2.20000,
,,,0.398856000000,   2.28000,
,,,0.398857000000,   2.36000,
,,,0.398858000000,   2.40000,
,,,0.398859000000,   2.48000,
,,,0.398860000000,   2.52000,
,,,0.398861000000,   2.56000,
,,,0.398862000000,   2.56000,
,,,0.398863000000,   2.68000,
,,,0.398864000000,   2.72000,
,,,0.398865000000,   2.76000,
,,,0.398866000000,   2.80000,
,,,0.398867000000,   2.84000,
,,,0.398868000000,   2.88000,
,,,0.398869000000,   2.92000,
,,,0.398870000000,   2.96000,
,,,0.398871000000,   3.00000,
,,,0.398872000000,   3.00000,
,,,0.398873000000,   3.04000,
,,,0.398874000000,   3.04000,
,,,0.398875000000,   3.08000,
,,,0.398876000000,   3.12000,
,,,0.398877000000,   3.16000,
,,,0.398878000000,   3.20000,
,,,0.398879000000,   3.20000,
,,,0.398880000000,   3.20000,
,,,0.398881000000,   3.20000,
,,,0.398882000000,   3.20000,
,,,0.398883000000,   3.20000,
,,,0.398884000000,   3.20000,
,,,0.398885000000,   3.24000,
,,,0.398886000000,   3.24000,
,,,0.398887000000,   3.20000,
,,,0.398888000000,   3.20000,
,,,0.398889000000,   3.20000,
,,,0.398890000000,   3.20000,
,,,0.398891000000,   3.20000,
,,,0.398892000000,   3.20000,
,,,0.398893000000,   3.16000,
,,,0.398894000000,   3.16000,
,,,0.398895000000,   3.16000,
,,,0.398896000000,   3.12000,
,,,0.398897000000,   3.08000,
,,,0.398898000000,   3.08000,
,,,0.398899000000,   3.04000,
,,,0.398900000000,   3.00000,
,,,0.398901000000,   2.96000,
,,,0.398902000000,   2.92000,
,,,0.398903000000,   2.88000,
,,,0.398904000000,   2.88000,
,,,0.398905000000,   2.80000,
,,,0.398906000000,   2.76000,
,,,0.398907000000,   2.76000,
,,,0.398908000000,   2.68000,
,,,0.398909000000,   2.64000,
,,,0.398910000000,   2.60000,
,,,0.398911000000,   2.56000,
,,,0.398912000000,   2.48000,
,,,0.398913000000,   2.48000,
,,,0.398914000000,   2.40000,
,,,0.398915000000,   2.32000,
,,,0.398916000000,   2.28000,
,,,0.398917000000,   2.20000,
,,,0.398918000000,   2.16000,
,,,0.398919000000,   2.12000,
,,,0.398920000000,   2.00000,
,,,0.398921000000,   1.96000,
,,,0.398922000000,   1.88000,
,,,0.398923000000,   1.80000,
,,,0.398924000000,   1.76000,
,,,0.398925000000,   1.68000,
,,,0.398926000000,   1.64000,
,,,0.398927000000,   1.52000,
,,,0.398928000000,   1.44000,
,,,0.398929000000,   1.36000,
,,,0.398930000000,   1.28000,
,,,0.398931000000,   1.20000,
,,,0.398932000000,   1.12000,
,,,0.398933000000,   1.04000,
,,,0.398934000000,   1.00000,
,,,0.398935000000,   0.92000,
,,,0.398936000000,   0.80000,
,,,0.398937000000,   0.72000,
,,,0.398938000000,   0.64000,
,,,0.398939000000,   0.56000,
,,,0.398940000000,   0.48000,
,,,0.398941000000,   0.36000,
,,,0.398942000000,   0.32000,
,,,0.398943000000,   0.24000,
,,,0.398944000000,   0.12000,
,,,0.398945000000,   0.04000,
,,,0.398946000000,  -0.04000,
,,,0.398947000000,  -0.12000,
,,,0.398948000000,  -0.20000,
,,,0.398949000000,  -0.28000,
,,,0.398950000000,  -0.40000,
,,,0.398951000000,  -0.48000,
,,,0.398952000000,  -0.56000,
,,,0.398953000000,  -0.64000,
,,,0.398954000000,  -0.72000,
,,,0.398955000000,  -0.80000,
,,,0.398956000000,  -0.88000,
,,,0.398957000000,  -0.96000,
,,,0.398958000000,  -1.04000,
,,,0.398959000000,  -1.12000,
,,,0.398960000000,  -1.20000,
,,,0.398961000000,  -1.28000,
,,,0.398962000000,  -1.32000,
,,,0.398963000000,  -1.40000,
,,,0.398964000000,  -1.48000,
,,,0.398965000000,  -1.60000,
,,,0.398966000000,  -1.68000,
,,,0.398967000000,  -1.72000,
,,,0.398968000000,  -1.80000,
,,,0.398969000000,  -1.88000,
,,,0.398970000000,  -1.96000,
,,,0.398971000000,  -2.00000,
,,,0.398972000000,  -2.08000,
,,,0.398973000000,  -2.16000,
,,,0.398974000000,  -2.20000,
,,,0.398975000000,  -2.24000,
,,,0.398976000000,  -2.32000,
,,,0.398977000000,  -2.36000,
,,,0.398978000000,  -2.44000,
,,,0.398979000000,  -2.48000,
,,,0.398980000000,  -2.56000,
,,,0.398981000000,  -2.60000,
,,,0.398982000000,  -2.64000,
,,,0.398983000000,  -2.68000,
,,,0.398984000000,  -2.72000,
,,,0.398985000000,  -2.76000,
,,,0.398986000000,  -2.84000,
,,,0.398987000000,  -2.84000,
,,,0.398988000000,  -2.92000,
,,,0.398989000000,  -2.92000,
,,,0.398990000000,  -2.96000,
,,,0.398991000000,  -3.00000,
,,,0.398992000000,  -3.00000,
,,,0.398993000000,  -3.04000,
,,,0.398994000000,  -3.08000,
,,,0.398995000000,  -3.08000,
,,,0.398996000000,  -3.12000,
,,,0.398997000000,  -3.12000,
,,,0.398998000000,  -3.16000,
,,,0.398999000000,  -3.20000,
,,,0.399000000000,  -3.16000,
,,,0.399001000000,  -3.20000,
,,,0.399002000000,  -3.20000,
,,,0.399003000000,  -3.20000,
,,,0.399004000000,  -3.24000,
,,,0.399005000000,  -3.24000,
,,,0.399006000000,  -3.20000,
,,,0.399007000000,  -3.24000,
,,,0.399008000000,  -3.20000,
,,,0.399009000000,  -3.24000,
,,,0.399010000000,  -3.20000,
,,,0.399011000000,  -3.20000,
,,,0.399012000000,  -3.16000,
,,,0.399013000000,  -3.16000,
,,,0.399014000000,  -3.16000,
,,,0.399015000000,  -3.12000,
,,,0.399016000000,  -3.08000,
,,,0.399017000000,  -3.08000,
,,,0.399018000000,  -3.04000,
,,,0.399019000000,  -3.00000,
,,,0.399020000000,  -2.96000,
,,,0.399021000000,  -2.96000,
,,,0.399022000000,  -2.92000,
,,,0.399023000000,  -2.88000,
,,,0.399024000000,  -2.84000,
,,,0.399025000000,  -2.80000,
,,,0.399026000000,  -2.76000,
,,,0.399027000000,  -2.72000,
,,,0.399028000000,  -2.68000,
,,,0.399029000000,  -2.64000,
,,,0.399030000000,  -2.56000,
,,,0.399031000000,  -2.52000,
,,,0.399032000000,  -2.48000,
,,,0.399033000000,  -2.40000,
,,,0.399034000000,  -2.36000,
,,,0.399035000000,  -2.32000,
,,,0.399036000000,  -2.24000,
,,,0.399037000000,  -2.20000,
,,,0.399038000000,  -2.12000,
,,,0.399039000000,  -2.04000,
,,,0.399040000000,  -2.00000,
,,,0.399041000000,  -1.92000,
,,,0.399042000000,  -1.88000,
,,,0.399043000000,  -1.80000,
,,,0.399044000000,  -1.68000,
,,,0.399045000000,  -1.64000,
,,,0.399046000000,  -1.52000,
,,,0.399047000000,  -1.48000,
,,,0.399048000000,  -1.44000,
,,,0.399049000000,  -1.32000,
,,,0.399050000000,  -1.24000,
,,,0.399051000000,  -1.16000,
,,,0.399052000000,  -1.12000,
,,,0.399053000000,  -1.00000,
,,,0.399054000000,  -0.96000,
,,,0.399055000000,  -0.88000,
,,,0.399056000000,  -0.76000,
,,,0.399057000000,  -0.68000,
,,,0.399058000000,  -0.60000,
,,,0.399059000000,  -0.52000,
,,,0.399060000000,  -0.44000,
,,,0.399061000000,  -0.32000,
,,,0.399062000000,  -0.24000,
,,,0.399063000000,  -0.16000,
,,,0.399064000000,  -0.12000,
,,,0.399065000000,   0.00000,
,,,0.399066000000,   0.08000,
,,,0.399067000000,   0.16000,
,,,0.399068000000,   0.24000,
,,,0.399069000000,   0.32000,
,,,0.399070000000,   0.40000,
,,,0.399071000000,   0.48000,
,,,0.399072000000,   0.56000,
,,,0.399073000000,   0.64000,
,,,0.399074000000,   0.76000,
,,,0.399075000000,   0.84000,
,,,0.399076000000,   0.92000,
,,,0.399077000000,   0.96000,
,,,0.399078000000,   1.08000,
,,,0.399079000000,   1.16000,
,,,0.399080000000,   1.24000,
,,,0.399081000000,   1.32000,
,,,0.399082000000,   1.36000,
,,,0.399083000000,   1.48000,
,,,0.399084000000,   1.52000,
,,,0.399085000000,   1.64000,
,,,0.399086000000,   1.68000,
,,,0.399087000000,   1.76000,
,,,0.399088000000,   1.84000,
,,,0.399089000000,   1.88000,
,,,0.399090000000,   1.96000,
,,,0.399091000000,   2.04000,
,,,0.399092000000,   2.12000,
,,,0.399093000000,   2.20000,
,,,0.399094000000,   2.24000,
,,,0.399095000000,   2.28000,
,,,0.399096000000,   2.36000,
,,,0.399097000000,   2.40000,
,,,0.399098000000,   2.48000,
,,,0.399099000000,   2.52000,
,,,0.399100000000,   2.56000,
,,,0.399101000000,   2.64000,
,,,0.399102000000,   2.64000,
,,,0.399103000000,   2.72000,
,,,0.399104000000,   2.76000,
,,,0.399105000000,   2.80000,
,,,0.399106000000,   2.84000,
,,,0.399107000000,   2.88000,
,,,0.399108000000,   2.92000,
,,,0.399109000000,   2.96000,
,,,0.399110000000,   3.00000,
,,,0.399111000000,   3.00000,
,,,0.399112000000,   3.04000,
,,,0.399113000000,   3.08000,
,,,0.399114000000,   3.12000,
,,,0.399115000000,   3.12000,
,,,0.399116000000,   3.16000,
,,,0.399117000000,   3.16000,
,,,0.399118000000,   3.20000,
,,,0.399119000000,   3.16000,
,,,0.399120000000,   3.20000,
,,,0.399121000000,   3.20000,
,,,0.399122000000,   3.20000,
,,,0.399123000000,   3.20000,
,,,0.399124000000,   3.24000,
,,,0.399125000000,   3.20000,
,,,0.399126000000,   3.24000,
,,,0.399127000000,   3.24000,
,,,0.399128000000,   3.20000,
,,,0.399129000000,   3.20000,
,,,0.399130000000,   3.20000,
,,,0.399131000000,   3.20000,
,,,0.399132000000,   3.16000,
,,,0.399133000000,   3.16000,
,,,0.399134000000,   3.12000,
,,,0.399135000000,   3.12000,
,,,0.399136000000,   3.08000,
,,,0.399137000000,   3.04000,
,,,0.399138000000,   3.04000,
,,,0.399139000000,   3.00000,
,,,0.399140000000,   2.96000,
,,,0.399141000000,   2.96000,
,,,0.399142000000,   2.92000,
,,,0.399143000000,   2.84000,
,,,0.399144000000,   2.84000,
,,,0.399145000000,   2.76000,
,,,0.399146000000,   2.72000,
,,,0.399147000000,   2.68000,
,,,0.399148000000,   2.64000,
,,,0.399149000000,   2.60000,
,,,0.399150000000,   2.52000,
,,,0.399151000000,   2.48000,
,,,0.399152000000,   2.44000,
,,,0.399153000000,   2.40000,
,,,0.399154000000,   2.32000,
,,,0.399155000000,   2.24000,
,,,0.399156000000,   2.20000,
,,,0.399157000000,   2.12000,
,,,0.399158000000,   2.08000,
,,,0.399159000000,   2.00000,
,,,0.399160000000,   1.92000,
,,,0.399161000000,   1.88000,
,,,0.399162000000,   1.80000,
,,,0.399163000000,   1.72000,
,,,0.399164000000,   1.68000,
,,,0.399165000000,   1.60000,
,,,0.399166000000,   1.52000,
,,,0.399167000000,   1.44000,
,,,0.399168000000,   1.36000,
,,,0.399169000000,   1.28000,
,,,0.399170000000,   1.20000,
,,,0.399171000000,   1.12000,
,,,0.399172000000,   1.04000,
,,,0.399173000000,   0.96000,
,,,0.399174000000,   0.88000,
,,,0.399175000000,   0.80000,
,,,0.399176000000,   0.72000,
,,,0.399177000000,   0.60000,
,,,0.399178000000,   0.56000,
,,,0.399179000000,   0.44000,
,,,0.399180000000,   0.36000,
,,,0.399181000000,   0.28000,
,,,0.399182000000,   0.20000,
,,,0.399183000000,   0.12000,
,,,0.399184000000,   0.04000,
,,,0.399185000000,  -0.08000,
,,,0.399186000000,  -0.12000,
,,,0.399187000000,  -0.20000,
,,,0.399188000000,  -0.32000,
,,,0.399189000000,  -0.40000,
,,,0.399190000000,  -0.48000,
,,,0.399191000000,  -0.56000,
,,,0.399192000000,  -0.64000,
,,,0.399193000000,  -0.72000,
,,,0.399194000000,  -0.80000,
,,,0.399195000000,  -0.88000,
,,,0.399196000000,  -0.96000,
,,,0.399197000000,  -1.04000,
,,,0.399198000000,  -1.12000,
,,,0.399199000000,  -1.20000,
,,,0.399200000000,  -1.28000,
,,,0.399201000000,  -1.36000,
,,,0.399202000000,  -1.44000,
,,,0.399203000000,  -1.52000,
,,,0.399204000000,  -1.60000,
,,,0.399205000000,  -1.68000,
,,,0.399206000000,  -1.76000,
,,,0.399207000000,  -1.80000,
,,,0.399208000000,  -1.88000,
,,,0.399209000000,  -1.96000,
,,,0.399210000000,  -2.00000,
,,,0.399211000000,  -2.08000,
,,,0.399212000000,  -2.16000,
,,,0.399213000000,  -2.20000,
,,,0.399214000000,  -2.28000,
,,,0.399215000000,  -2.32000,
,,,0.399216000000,  -2.40000,
,,,0.399217000000,  -2.44000,
,,,0.399218000000,  -2.52000,
,,,0.399219000000,  -2.56000,
,,,0.399220000000,  -2.60000,
,,,0.399221000000,  -2.60000,
,,,0.399222000000,  -2.72000,
,,,0.399223000000,  -2.72000,
,,,0.399224000000,  -2.80000,
,,,0.399225000000,  -2.84000,
,,,0.399226000000,  -2.88000,
,,,0.399227000000,  -2.92000,
,,,0.399228000000,  -2.92000,
,,,0.399229000000,  -2.96000,
,,,0.399230000000,  -3.00000,
,,,0.399231000000,  -3.00000,
,,,0.399232000000,  -3.04000,
,,,0.399233000000,  -3.08000,
,,,0.399234000000,  -3.12000,
,,,0.399235000000,  -3.12000,
,,,0.399236000000,  -3.12000,
,,,0.399237000000,  -3.16000,
,,,0.399238000000,  -3.16000,
,,,0.399239000000,  -3.20000,
,,,0.399240000000,  -3.24000,
,,,0.399241000000,  -3.20000,
,,,0.399242000000,  -3.24000,
,,,0.399243000000,  -3.24000,
,,,0.399244000000,  -3.24000,
,,,0.399245000000,  -3.24000,
,,,0.399246000000,  -3.20000,
,,,0.399247000000,  -3.20000,
,,,0.399248000000,  -3.20000,
,,,0.399249000000,  -3.20000,
,,,0.399250000000,  -3.20000,
,,,0.399251000000,  -3.20000,
,,,0.399252000000,  -3.16000,
,,,0.399253000000,  -3.16000,
,,,0.399254000000,  -3.12000,
,,,0.399255000000,  -3.08000,
,,,0.399256000000,  -3.04000,
,,,0.399257000000,  -3.04000,
,,,0.399258000000,  -3.00000,
,,,0.399259000000,  -2.96000,
,,,0.399260000000,  -2.96000,
,,,0.399261000000,  -2.92000,
,,,0.399262000000,  -2.88000,
,,,0.399263000000,  -2.84000,
,,,0.399264000000,  -2.80000,
,,,0.399265000000,  -2.76000,
,,,0.399266000000,  -2.72000,
,,,0.399267000000,  -2.68000,
,,,0.399268000000,  -2.60000,
,,,0.399269000000,  -2.56000,
,,,0.399270000000,  -2.52000,
,,,0.399271000000,  -2.48000,
,,,0.399272000000,  -2.40000,
,,,0.399273000000,  -2.36000,
,,,0.399274000000,  -2.32000,
,,,0.399275000000,  -2.20000,
,,,0.399276000000,  -2.16000,
,,,0.399277000000,  -2.12000,
,,,0.399278000000,  -2.04000,
,,,0.399279000000,  -1.96000,
,,,0.399280000000,  -1.92000,
,,,0.399281000000,  -1.84000,
,,,0.399282000000,  -1.80000,
,,,0.399283000000,  -1.68000,
,,,0.399284000000,  -1.64000,
,,,0.399285000000,  -1.56000,
,,,0.399286000000,  -1.44000,
,,,0.399287000000,  -1.40000,
,,,0.399288000000,  -1.32000,
,,,0.399289000000,  -1.24000,
,,,0.399290000000,  -1.16000,
,,,0.399291000000,  -1.08000,
,,,0.399292000000,  -1.00000,
,,,0.399293000000,  -0.92000,
,,,0.399294000000,  -0.84000,
,,,0.399295000000,  -0.76000,
,,,0.399296000000,  -0.68000,
,,,0.399297000000,  -0.56000,
,,,0.399298000000,  -0.52000,
,,,0.399299000000,  -0.40000,
,,,0.399300000000,  -0.32000,
,,,0.399301000000,  -0.24000,
,,,0.399302000000,  -0.16000,
,,,0.399303000000,  -0.08000,
,,,0.399304000000,   0.00000,
,,,0.399305000000,   0.08000,
,,,0.399306000000,   0.16000,
,,,0.399307000000,   0.24000,
,,,0.399308000000,   0.32000,
,,,0.399309000000,   0.44000,
,,,0.399310000000,   0.52000,
,,,0.399311000000,   0.60000,
,,,0.399312000000,   0.72000,
,,,0.399313000000,   0.76000,
,,,0.399314000000,   0.84000,
,,,0.399315000000,   0.96000,
,,,0.399316000000,   1.00000,
,,,0.399317000000,   1.08000,
,,,0.399318000000,   1.16000,
,,,0.399319000000,   1.24000,
,,,0.399320000000,   1.32000,
,,,0.399321000000,   1.44000,
,,,0.399322000000,   1.48000,
,,,0.399323000000,   1.56000,
,,,0.399324000000,   1.60000,
,,,0.399325000000,   1.72000,
,,,0.399326000000,   1.80000,
,,,0.399327000000,   1.84000,
,,,0.399328000000,   1.92000,
,,,0.399329000000,   1.96000,
,,,0.399330000000,   2.04000,
,,,0.399331000000,   2.12000,
,,,0.399332000000,   2.20000,
,,,0.399333000000,   2.24000,
,,,0.399334000000,   2.28000,
,,,0.399335000000,   2.36000,
,,,0.399336000000,   2.40000,
,,,0.399337000000,   2.48000,
,,,0.399338000000,   2.52000,
,,,0.399339000000,   2.56000,
,,,0.399340000000,   2.64000,
,,,0.399341000000,   2.68000,
,,,0.399342000000,   2.72000,
,,,0.399343000000,   2.76000,
,,,0.399344000000,   2.80000,
,,,0.399345000000,   2.84000,
,,,0.399346000000,   2.88000,
,,,0.399347000000,   2.92000,
,,,0.399348000000,   2.92000,
,,,0.399349000000,   3.00000,
,,,0.399350000000,   3.04000,
,,,0.399351000000,   3.04000,
,,,0.399352000000,   3.08000,
,,,0.399353000000,   3.08000,
,,,0.399354000000,   3.12000,
,,,0.399355000000,   3.16000,
,,,0.399356000000,   3.16000,
,,,0.399357000000,   3.16000,
,,,0.399358000000,   3.16000,
,,,0.399359000000,   3.24000,
,,,0.399360000000,   3.20000,
,,,0.399361000000,   3.24000,
,,,0.399362000000,   3.24000,
,,,0.399363000000,   3.24000,
,,,0.399364000000,   3.24000,
,,,0.399365000000,   3.24000,
,,,0.399366000000,   3.24000,
,,,0.399367000000,   3.20000,
,,,0.399368000000,   3.20000,
,,,0.399369000000,   3.20000,
,,,0.399370000000,   3.16000,
,,,0.399371000000,   3.16000,
,,,0.399372000000,   3.16000,
,,,0.399373000000,   3.12000,
,,,0.399374000000,   3.08000,
,,,0.399375000000,   3.08000,
,,,0.399376000000,   3.08000,
,,,0.399377000000,   3.04000,
,,,0.399378000000,   3.00000,
,,,0.399379000000,   2.96000,
,,,0.399380000000,   2.92000,
,,,0.399381000000,   2.92000,
,,,0.399382000000,   2.88000,
,,,0.399383000000,   2.80000,
,,,0.399384000000,   2.80000,
,,,0.399385000000,   2.72000,
,,,0.399386000000,   2.68000,
,,,0.399387000000,   2.64000,
,,,0.399388000000,   2.60000,
,,,0.399389000000,   2.52000,
,,,0.399390000000,   2.48000,
,,,0.399391000000,   2.44000,
,,,0.399392000000,   2.36000,
,,,0.399393000000,   2.36000,
,,,0.399394000000,   2.24000,
,,,0.399395000000,   2.16000,
,,,0.399396000000,   2.12000,
,,,0.399397000000,   2.04000,
,,,0.399398000000,   2.00000,
,,,0.399399000000,   1.96000,
,,,0.399400000000,   1.84000,
,,,0.399401000000,   1.80000,
,,,0.399402000000,   1.72000,
,,,0.399403000000,   1.64000,
