Calibracion/Ensayo de distorsión armónica/Oscilogramas THD/TEK0021.CSV

Record Length,2.500000e+03,,   0.049750000000,   0.92000,
Sample Interval,2.000000e-07,,   0.049750200000,   1.00000,
Trigger Point,-2.487500000000e+05,,   0.049750400000,   1.04000,
,,,   0.049750600000,   1.16000,
,,,   0.049750800000,   1.20000,
,,,   0.049751000000,   1.28000,
Source,CH1,,   0.049751200000,   1.36000,
Vertical Units,V,,   0.049751400000,   1.44000,
Vertical Scale,1.000000e+00,,   0.049751600000,   1.52000,
Vertical Offset,0.000000e+00,,   0.049751800000,   1.60000,
Horizontal Units,s,,   0.049752000000,   1.64000,
Horizontal Scale,5.000000e-05,,   0.049752200000,   1.72000,
Pt Fmt,Y,,   0.049752400000,   1.80000,
Yzero,0.000000e+00,,   0.049752600000,   1.84000,
Probe Atten,1.000000e+00,,   0.049752800000,   1.92000,
Model Number,TDS2014C,,   0.049753000000,   1.96000,
Serial Number,C013080,,   0.049753200000,   2.04000,
Firmware Version,FV:v24.15,,   0.049753400000,   2.12000,
,,,0.049753600000,   2.16000,
,,,0.049753800000,   2.20000,
,,,0.049754000000,   2.28000,
,,,0.049754200000,   2.32000,
,,,0.049754400000,   2.40000,
,,,0.049754600000,   2.44000,
,,,0.049754800000,   2.48000,
,,,0.049755000000,   2.48000,
,,,0.049755200000,   2.60000,
,,,0.049755400000,   2.64000,
,,,0.049755600000,   2.72000,
,,,0.049755800000,   2.68000,
,,,0.049756000000,   2.72000,
,,,0.049756200000,   2.80000,
,,,0.049756400000,   2.84000,
,,,0.049756600000,   2.84000,
,,,0.049756800000,   2.88000,
,,,0.049757000000,   2.92000,
,,,0.049757200000,   3.00000,
,,,0.049757400000,   2.92000,
,,,0.049757600000,   3.00000,
,,,0.049757800000,   3.00000,
,,,0.049758000000,   3.04000,
,,,0.049758200000,   3.08000,
,,,0.049758400000,   3.08000,
,,,0.049758600000,   3.16000,
,,,0.049758800000,   3.12000,
,,,0.049759000000,   3.08000,
,,,0.049759200000,   3.12000,
,,,0.049759400000,   3.08000,
,,,0.049759600000,   3.08000,
,,,0.049759800000,   3.16000,
,,,0.049760000000,   3.12000,
,,,0.049760200000,   3.12000,
,,,0.049760400000,   3.16000,
,,,0.049760600000,   3.16000,
,,,0.049760800000,   3.08000,
,,,0.049761000000,   3.12000,
,,,0.049761200000,   3.12000,
,,,0.049761400000,   3.08000,
,,,0.049761600000,   3.08000,
,,,0.049761800000,   3.08000,
,,,0.049762000000,   3.00000,
,,,0.049762200000,   3.08000,
,,,0.049762400000,   3.00000,
,,,0.049762600000,   2.96000,
,,,0.049762800000,   3.00000,
,,,0.049763000000,   2.96000,
,,,0.049763200000,   2.84000,
,,,0.049763400000,   2.88000,
,,,0.049763600000,   2.84000,
,,,0.049763800000,   2.80000,
,,,0.049764000000,   2.72000,
,,,0.049764200000,   2.72000,
,,,0.049764400000,   2.68000,
,,,0.049764600000,   2.68000,
,,,0.049764800000,   2.56000,
,,,0.049765000000,   2.52000,
,,,0.049765200000,   2.52000,
,,,0.049765400000,   2.52000,
,,,0.049765600000,   2.44000,
,,,0.049765800000,   2.36000,
,,,0.049766000000,   2.32000,
,,,0.049766200000,   2.24000,
,,,0.049766400000,   2.16000,
,,,0.049766600000,   2.12000,
,,,0.049766800000,   2.08000,
,,,0.049767000000,   2.04000,
,,,0.049767200000,   1.96000,
,,,0.049767400000,   1.88000,
,,,0.049767600000,   1.84000,
,,,0.049767800000,   1.76000,
,,,0.049768000000,   1.64000,
,,,0.049768200000,   1.60000,
,,,0.049768400000,   1.56000,
,,,0.049768600000,   1.48000,
,,,0.049768800000,   1.44000,
,,,0.049769000000,   1.28000,
,,,0.049769200000,   1.28000,
,,,0.049769400000,   1.20000,
,,,0.049769600000,   1.08000,
,,,0.049769800000,   1.04000,
,,,0.049770000000,   0.96000,
,,,0.049770200000,   0.88000,
,,,0.049770400000,   0.80000,
,,,0.049770600000,   0.72000,
,,,0.049770800000,   0.68000,
,,,0.049771000000,   0.56000,
,,,0.049771200000,   0.48000,
,,,0.049771400000,   0.44000,
,,,0.049771600000,   0.32000,
,,,0.049771800000,   0.24000,
,,,0.049772000000,   0.20000,
,,,0.049772200000,   0.04000,
,,,0.049772400000,   0.00000,
,,,0.049772600000,  -0.04000,
,,,0.049772800000,  -0.12000,
,,,0.049773000000,  -0.20000,
,,,0.049773200000,  -0.32000,
,,,0.049773400000,  -0.40000,
,,,0.049773600000,  -0.48000,
,,,0.049773800000,  -0.56000,
,,,0.049774000000,  -0.60000,
,,,0.049774200000,  -0.72000,
,,,0.049774400000,  -0.80000,
,,,0.049774600000,  -0.84000,
,,,0.049774800000,  -0.96000,
,,,0.049775000000,  -1.04000,
,,,0.049775200000,  -1.04000,
,,,0.049775400000,  -1.12000,
,,,0.049775600000,  -1.20000,
,,,0.049775800000,  -1.32000,
,,,0.049776000000,  -1.36000,
,,,0.049776200000,  -1.40000,
,,,0.049776400000,  -1.52000,
,,,0.049776600000,  -1.60000,
,,,0.049776800000,  -1.68000,
,,,0.049777000000,  -1.76000,
,,,0.049777200000,  -1.80000,
,,,0.049777400000,  -1.84000,
,,,0.049777600000,  -1.92000,
,,,0.049777800000,  -1.96000,
,,,0.049778000000,  -2.04000,
,,,0.049778200000,  -2.16000,
,,,0.049778400000,  -2.16000,
,,,0.049778600000,  -2.24000,
,,,0.049778800000,  -2.28000,
,,,0.049779000000,  -2.36000,
,,,0.049779200000,  -2.44000,
,,,0.049779400000,  -2.44000,
,,,0.049779600000,  -2.52000,
,,,0.049779800000,  -2.52000,
,,,0.049780000000,  -2.60000,
,,,0.049780200000,  -2.64000,
,,,0.049780400000,  -2.68000,
,,,0.049780600000,  -2.68000,
,,,0.049780800000,  -2.80000,
,,,0.049781000000,  -2.80000,
,,,0.049781200000,  -2.88000,
,,,0.049781400000,  -2.92000,
,,,0.049781600000,  -2.92000,
,,,0.049781800000,  -2.96000,
,,,0.049782000000,  -3.00000,
,,,0.049782200000,  -3.08000,
,,,0.049782400000,  -3.12000,
,,,0.049782600000,  -3.08000,
,,,0.049782800000,  -3.08000,
,,,0.049783000000,  -3.12000,
,,,0.049783200000,  -3.12000,
,,,0.049783400000,  -3.12000,
,,,0.049783600000,  -3.20000,
,,,0.049783800000,  -3.24000,
,,,0.049784000000,  -3.24000,
,,,0.049784200000,  -3.24000,
,,,0.049784400000,  -3.20000,
,,,0.049784600000,  -3.24000,
,,,0.049784800000,  -3.28000,
,,,0.049785000000,  -3.28000,
,,,0.049785200000,  -3.20000,
,,,0.049785400000,  -3.20000,
,,,0.049785600000,  -3.20000,
,,,0.049785800000,  -3.24000,
,,,0.049786000000,  -3.20000,
,,,0.049786200000,  -3.20000,
,,,0.049786400000,  -3.20000,
,,,0.049786600000,  -3.12000,
,,,0.049786800000,  -3.16000,
,,,0.049787000000,  -3.12000,
,,,0.049787200000,  -3.12000,
,,,0.049787400000,  -3.08000,
,,,0.049787600000,  -3.08000,
,,,0.049787800000,  -3.04000,
,,,0.049788000000,  -3.04000,
,,,0.049788200000,  -3.00000,
,,,0.049788400000,  -2.96000,
,,,0.049788600000,  -3.00000,
,,,0.049788800000,  -2.88000,
,,,0.049789000000,  -2.80000,
,,,0.049789200000,  -2.80000,
,,,0.049789400000,  -2.80000,
,,,0.049789600000,  -2.72000,
,,,0.049789800000,  -2.64000,
,,,0.049790000000,  -2.64000,
,,,0.049790200000,  -2.60000,
,,,0.049790400000,  -2.52000,
,,,0.049790600000,  -2.48000,
,,,0.049790800000,  -2.44000,
,,,0.049791000000,  -2.44000,
,,,0.049791200000,  -2.32000,
,,,0.049791400000,  -2.28000,
,,,0.049791600000,  -2.24000,
,,,0.049791800000,  -2.16000,
,,,0.049792000000,  -2.08000,
,,,0.049792200000,  -2.04000,
,,,0.049792400000,  -1.96000,
,,,0.049792600000,  -1.92000,
,,,0.049792800000,  -1.88000,
,,,0.049793000000,  -1.80000,
,,,0.049793200000,  -1.72000,
,,,0.049793400000,  -1.56000,
,,,0.049793600000,  -1.60000,
,,,0.049793800000,  -1.52000,
,,,0.049794000000,  -1.44000,
,,,0.049794200000,  -1.40000,
,,,0.049794400000,  -1.28000,
,,,0.049794600000,  -1.24000,
,,,0.049794800000,  -1.16000,
,,,0.049795000000,  -1.08000,
,,,0.049795200000,  -1.00000,
,,,0.049795400000,  -0.92000,
,,,0.049795600000,  -0.84000,
,,,0.049795800000,  -0.72000,
,,,0.049796000000,  -0.68000,
,,,0.049796200000,  -0.60000,
,,,0.049796400000,  -0.48000,
,,,0.049796600000,  -0.40000,
,,,0.049796800000,  -0.32000,
,,,0.049797000000,  -0.28000,
,,,0.049797200000,  -0.20000,
,,,0.049797400000,  -0.12000,
,,,0.049797600000,  -0.04000,
,,,0.049797800000,   0.04000,
,,,0.049798000000,   0.12000,
,,,0.049798200000,   0.20000,
,,,0.049798400000,   0.28000,
,,,0.049798600000,   0.40000,
,,,0.049798800000,   0.44000,
,,,0.049799000000,   0.52000,
,,,0.049799200000,   0.60000,
,,,0.049799400000,   0.64000,
,,,0.049799600000,   0.76000,
,,,0.049799800000,   0.84000,
,,,0.049800000000,   0.88000,
,,,0.049800200000,   1.00000,
,,,0.049800400000,   1.04000,
,,,0.049800600000,   1.08000,
,,,0.049800800000,   1.24000,
,,,0.049801000000,   1.28000,
,,,0.049801200000,   1.36000,
,,,0.049801400000,   1.40000,
,,,0.049801600000,   1.48000,
,,,0.049801800000,   1.60000,
,,,0.049802000000,   1.68000,
,,,0.049802200000,   1.72000,
,,,0.049802400000,   1.76000,
,,,0.049802600000,   1.80000,
,,,0.049802800000,   1.88000,
,,,0.049803000000,   2.00000,
,,,0.049803200000,   2.08000,
,,,0.049803400000,   2.08000,
,,,0.049803600000,   2.12000,
,,,0.049803800000,   2.16000,
,,,0.049804000000,   2.24000,
,,,0.049804200000,   2.36000,
,,,0.049804400000,   2.36000,
,,,0.049804600000,   2.36000,
,,,0.049804800000,   2.52000,
,,,0.049805000000,   2.56000,
,,,0.049805200000,   2.60000,
,,,0.049805400000,   2.60000,
,,,0.049805600000,   2.64000,
,,,0.049805800000,   2.72000,
,,,0.049806000000,   2.68000,
,,,0.049806200000,   2.72000,
,,,0.049806400000,   2.76000,
,,,0.049806600000,   2.88000,
,,,0.049806800000,   2.96000,
,,,0.049807000000,   2.88000,
,,,0.049807200000,   2.96000,
,,,0.049807400000,   2.96000,
,,,0.049807600000,   3.00000,
,,,0.049807800000,   3.00000,
,,,0.049808000000,   3.04000,
,,,0.049808200000,   3.08000,
,,,0.049808400000,   3.04000,
,,,0.049808600000,   3.00000,
,,,0.049808800000,   3.12000,
,,,0.049809000000,   3.12000,
,,,0.049809200000,   3.12000,
,,,0.049809400000,   3.16000,
,,,0.049809600000,   3.16000,
,,,0.049809800000,   3.16000,
,,,0.049810000000,   3.20000,
,,,0.049810200000,   3.16000,
,,,0.049810400000,   3.16000,
,,,0.049810600000,   3.16000,
,,,0.049810800000,   3.12000,
,,,0.049811000000,   3.12000,
,,,0.049811200000,   3.16000,
,,,0.049811400000,   3.08000,
,,,0.049811600000,   3.12000,
,,,0.049811800000,   3.08000,
,,,0.049812000000,   3.04000,
,,,0.049812200000,   3.04000,
,,,0.049812400000,   2.96000,
,,,0.049812600000,   3.00000,
,,,0.049812800000,   2.96000,
,,,0.049813000000,   2.96000,
,,,0.049813200000,   2.96000,
,,,0.049813400000,   2.88000,
,,,0.049813600000,   2.80000,
,,,0.049813800000,   2.76000,
,,,0.049814000000,   2.76000,
,,,0.049814200000,   2.76000,
,,,0.049814400000,   2.72000,
,,,0.049814600000,   2.64000,
,,,0.049814800000,   2.60000,
,,,0.049815000000,   2.56000,
,,,0.049815200000,   2.52000,
,,,0.049815400000,   2.44000,
,,,0.049815600000,   2.44000,
,,,0.049815800000,   2.40000,
,,,0.049816000000,   2.36000,
,,,0.049816200000,   2.28000,
,,,0.049816400000,   2.20000,
,,,0.049816600000,   2.16000,
,,,0.049816800000,   2.08000,
,,,0.049817000000,   1.96000,
,,,0.049817200000,   2.00000,
,,,0.049817400000,   1.92000,
,,,0.049817600000,   1.80000,
,,,0.049817800000,   1.76000,
,,,0.049818000000,   1.68000,
,,,0.049818200000,   1.64000,
,,,0.049818400000,   1.52000,
,,,0.049818600000,   1.48000,
,,,0.049818800000,   1.40000,
,,,0.049819000000,   1.32000,
,,,0.049819200000,   1.28000,
,,,0.049819400000,   1.16000,
,,,0.049819600000,   1.16000,
,,,0.049819800000,   1.04000,
,,,0.049820000000,   0.96000,
,,,0.049820200000,   0.88000,
,,,0.049820400000,   0.80000,
,,,0.049820600000,   0.72000,
,,,0.049820800000,   0.64000,
,,,0.049821000000,   0.56000,
,,,0.049821200000,   0.44000,
,,,0.049821400000,   0.44000,
,,,0.049821600000,   0.36000,
,,,0.049821800000,   0.24000,
,,,0.049822000000,   0.20000,
,,,0.049822200000,   0.08000,
,,,0.049822400000,   0.00000,
,,,0.049822600000,  -0.08000,
,,,0.049822800000,  -0.12000,
,,,0.049823000000,  -0.24000,
,,,0.049823200000,  -0.36000,
,,,0.049823400000,  -0.44000,
,,,0.049823600000,  -0.44000,
,,,0.049823800000,  -0.52000,
,,,0.049824000000,  -0.64000,
,,,0.049824200000,  -0.72000,
,,,0.049824400000,  -0.80000,
,,,0.049824600000,  -0.84000,
,,,0.049824800000,  -0.92000,
,,,0.049825000000,  -1.00000,
,,,0.049825200000,  -1.08000,
,,,0.049825400000,  -1.16000,
,,,0.049825600000,  -1.24000,
,,,0.049825800000,  -1.32000,
,,,0.049826000000,  -1.40000,
,,,0.049826200000,  -1.48000,
,,,0.049826400000,  -1.52000,
,,,0.049826600000,  -1.60000,
,,,0.049826800000,  -1.72000,
,,,0.049827000000,  -1.76000,
,,,0.049827200000,  -1.84000,
,,,0.049827400000,  -1.88000,
,,,0.049827600000,  -1.92000,
,,,0.049827800000,  -2.00000,
,,,0.049828000000,  -2.08000,
,,,0.049828200000,  -2.16000,
,,,0.049828400000,  -2.20000,
,,,0.049828600000,  -2.20000,
,,,0.049828800000,  -2.28000,
,,,0.049829000000,  -2.36000,
,,,0.049829200000,  -2.44000,
,,,0.049829400000,  -2.48000,
,,,0.049829600000,  -2.52000,
,,,0.049829800000,  -2.56000,
,,,0.049830000000,  -2.60000,
,,,0.049830200000,  -2.68000,
,,,0.049830400000,  -2.68000,
,,,0.049830600000,  -2.72000,
,,,0.049830800000,  -2.80000,
,,,0.049831000000,  -2.84000,
,,,0.049831200000,  -2.88000,
,,,0.049831400000,  -2.96000,
,,,0.049831600000,  -3.00000,
,,,0.049831800000,  -2.96000,
,,,0.049832000000,  -3.00000,
,,,0.049832200000,  -3.04000,
,,,0.049832400000,  -3.08000,
,,,0.049832600000,  -3.04000,
,,,0.049832800000,  -3.12000,
,,,0.049833000000,  -3.12000,
,,,0.049833200000,  -3.20000,
,,,0.049833400000,  -3.20000,
,,,0.049833600000,  -3.20000,
,,,0.049833800000,  -3.20000,
,,,0.049834000000,  -3.20000,
,,,0.049834200000,  -3.28000,
,,,0.049834400000,  -3.24000,
,,,0.049834600000,  -3.24000,
,,,0.049834800000,  -3.24000,
,,,0.049835000000,  -3.20000,
,,,0.049835200000,  -3.20000,
,,,0.049835400000,  -3.24000,
,,,0.049835600000,  -3.24000,
,,,0.049835800000,  -3.24000,
,,,0.049836000000,  -3.24000,
,,,0.049836200000,  -3.20000,
,,,0.049836400000,  -3.24000,
,,,0.049836600000,  -3.20000,
,,,0.049836800000,  -3.16000,
,,,0.049837000000,  -3.20000,
,,,0.049837200000,  -3.16000,
,,,0.049837400000,  -3.12000,
,,,0.049837600000,  -3.12000,
,,,0.049837800000,  -3.08000,
,,,0.049838000000,  -3.04000,
,,,0.049838200000,  -2.96000,
,,,0.049838400000,  -2.92000,
,,,0.049838600000,  -2.96000,
,,,0.049838800000,  -2.88000,
,,,0.049839000000,  -2.80000,
,,,0.049839200000,  -2.80000,
,,,0.049839400000,  -2.80000,
,,,0.049839600000,  -2.72000,
,,,0.049839800000,  -2.64000,
,,,0.049840000000,  -2.60000,
,,,0.049840200000,  -2.56000,
,,,0.049840400000,  -2.52000,
,,,0.049840600000,  -2.48000,
,,,0.049840800000,  -2.44000,
,,,0.049841000000,  -2.36000,
,,,0.049841200000,  -2.36000,
,,,0.049841400000,  -2.28000,
,,,0.049841600000,  -2.20000,
,,,0.049841800000,  -2.16000,
,,,0.049842000000,  -2.12000,
,,,0.049842200000,  -2.04000,
,,,0.049842400000,  -1.96000,
,,,0.049842600000,  -1.88000,
,,,0.049842800000,  -1.80000,
,,,0.049843000000,  -1.80000,
,,,0.049843200000,  -1.72000,
,,,0.049843400000,  -1.68000,
,,,0.049843600000,  -1.60000,
,,,0.049843800000,  -1.52000,
,,,0.049844000000,  -1.44000,
,,,0.049844200000,  -1.40000,
,,,0.049844400000,  -1.24000,
,,,0.049844600000,  -1.20000,
,,,0.049844800000,  -1.16000,
,,,0.049845000000,  -1.08000,
,,,0.049845200000,  -0.96000,
,,,0.049845400000,  -0.92000,
,,,0.049845600000,  -0.84000,
,,,0.049845800000,  -0.72000,
,,,0.049846000000,  -0.72000,
,,,0.049846200000,  -0.60000,
,,,0.049846400000,  -0.52000,
,,,0.049846600000,  -0.48000,
,,,0.049846800000,  -0.32000,
,,,0.049847000000,  -0.28000,
,,,0.049847200000,  -0.16000,
,,,0.049847400000,  -0.08000,
,,,0.049847600000,  -0.04000,
,,,0.049847800000,   0.04000,
,,,0.049848000000,   0.12000,
,,,0.049848200000,   0.16000,
,,,0.049848400000,   0.24000,
,,,0.049848600000,   0.40000,
,,,0.049848800000,   0.48000,
,,,0.049849000000,   0.48000,
,,,0.049849200000,   0.60000,
,,,0.049849400000,   0.68000,
,,,0.049849600000,   0.80000,
,,,0.049849800000,   0.84000,
,,,0.049850000000,   0.92000,
,,,0.049850200000,   0.96000,
,,,0.049850400000,   1.04000,
,,,0.049850600000,   1.16000,
,,,0.049850800000,   1.20000,
,,,0.049851000000,   1.28000,
,,,0.049851200000,   1.36000,
,,,0.049851400000,   1.48000,
,,,0.049851600000,   1.48000,
,,,0.049851800000,   1.60000,
,,,0.049852000000,   1.68000,
,,,0.049852200000,   1.68000,
,,,0.049852400000,   1.76000,
,,,0.049852600000,   1.84000,
,,,0.049852800000,   1.96000,
,,,0.049853000000,   1.96000,
,,,0.049853200000,   1.96000,
,,,0.049853400000,   2.04000,
,,,0.049853600000,   2.20000,
,,,0.049853800000,   2.24000,
,,,0.049854000000,   2.20000,
,,,0.049854200000,   2.32000,
,,,0.049854400000,   2.40000,
,,,0.049854600000,   2.44000,
,,,0.049854800000,   2.48000,
,,,0.049855000000,   2.48000,
,,,0.049855200000,   2.56000,
,,,0.049855400000,   2.64000,
,,,0.049855600000,   2.64000,
,,,0.049855800000,   2.72000,
,,,0.049856000000,   2.72000,
,,,0.049856200000,   2.80000,
,,,0.049856400000,   2.84000,
,,,0.049856600000,   2.84000,
,,,0.049856800000,   2.84000,
,,,0.049857000000,   2.96000,
,,,0.049857200000,   2.96000,
,,,0.049857400000,   2.96000,
,,,0.049857600000,   3.00000,
,,,0.049857800000,   3.00000,
,,,0.049858000000,   2.96000,
,,,0.049858200000,   3.04000,
,,,0.049858400000,   3.04000,
,,,0.049858600000,   3.08000,
,,,0.049858800000,   3.08000,
,,,0.049859000000,   3.08000,
,,,0.049859200000,   3.08000,
,,,0.049859400000,   3.16000,
,,,0.049859600000,   3.16000,
,,,0.049859800000,   3.12000,
,,,0.049860000000,   3.12000,
,,,0.049860200000,   3.16000,
,,,0.049860400000,   3.16000,
,,,0.049860600000,   3.12000,
,,,0.049860800000,   3.12000,
,,,0.049861000000,   3.12000,
,,,0.049861200000,   3.12000,
,,,0.049861400000,   3.12000,
,,,0.049861600000,   3.08000,
,,,0.049861800000,   3.04000,
,,,0.049862000000,   3.08000,
,,,0.049862200000,   3.04000,
,,,0.049862400000,   3.04000,
,,,0.049862600000,   3.00000,
,,,0.049862800000,   2.96000,
,,,0.049863000000,   2.92000,
,,,0.049863200000,   2.84000,
,,,0.049863400000,   2.88000,
,,,0.049863600000,   2.84000,
,,,0.049863800000,   2.76000,
,,,0.049864000000,   2.76000,
,,,0.049864200000,   2.76000,
,,,0.049864400000,   2.72000,
,,,0.049864600000,   2.60000,
,,,0.049864800000,   2.60000,
,,,0.049865000000,   2.60000,
,,,0.049865200000,   2.48000,
,,,0.049865400000,   2.40000,
,,,0.049865600000,   2.44000,
,,,0.049865800000,   2.32000,
,,,0.049866000000,   2.32000,
,,,0.049866200000,   2.28000,
,,,0.049866400000,   2.16000,
,,,0.049866600000,   2.08000,
,,,0.049866800000,   2.12000,
,,,0.049867000000,   2.00000,
,,,0.049867200000,   1.96000,
,,,0.049867400000,   1.92000,
,,,0.049867600000,   1.84000,
,,,0.049867800000,   1.76000,
,,,0.049868000000,   1.68000,
,,,0.049868200000,   1.64000,
,,,0.049868400000,   1.60000,
,,,0.049868600000,   1.48000,
,,,0.049868800000,   1.48000,
,,,0.049869000000,   1.36000,
,,,0.049869200000,   1.28000,
,,,0.049869400000,   1.20000,
,,,0.049869600000,   1.08000,
,,,0.049869800000,   1.00000,
,,,0.049870000000,   1.00000,
,,,0.049870200000,   0.88000,
,,,0.049870400000,   0.80000,
,,,0.049870600000,   0.76000,
,,,0.049870800000,   0.64000,
,,,0.049871000000,   0.56000,
,,,0.049871200000,   0.52000,
,,,0.049871400000,   0.40000,
,,,0.049871600000,   0.36000,
,,,0.049871800000,   0.24000,
,,,0.049872000000,   0.16000,
,,,0.049872200000,   0.08000,
,,,0.049872400000,   0.04000,
,,,0.049872600000,  -0.04000,
,,,0.049872800000,  -0.12000,
,,,0.049873000000,  -0.24000,
,,,0.049873200000,  -0.32000,
,,,0.049873400000,  -0.40000,
,,,0.049873600000,  -0.48000,
,,,0.049873800000,  -0.52000,
,,,0.049874000000,  -0.60000,
,,,0.049874200000,  -0.68000,
,,,0.049874400000,  -0.76000,
,,,0.049874600000,  -0.84000,
,,,0.049874800000,  -0.92000,
,,,0.049875000000,  -1.00000,
,,,0.049875200000,  -1.08000,
,,,0.049875400000,  -1.20000,
,,,0.049875600000,  -1.24000,
,,,0.049875800000,  -1.32000,
,,,0.049876000000,  -1.40000,
,,,0.049876200000,  -1.44000,
,,,0.049876400000,  -1.48000,
,,,0.049876600000,  -1.64000,
,,,0.049876800000,  -1.68000,
,,,0.049877000000,  -1.72000,
,,,0.049877200000,  -1.80000,
,,,0.049877400000,  -1.88000,
,,,0.049877600000,  -1.92000,
,,,0.049877800000,  -1.96000,
,,,0.049878000000,  -2.04000,
,,,0.049878200000,  -2.12000,
,,,0.049878400000,  -2.12000,
,,,0.049878600000,  -2.20000,
,,,0.049878800000,  -2.24000,
,,,0.049879000000,  -2.36000,
,,,0.049879200000,  -2.40000,
,,,0.049879400000,  -2.40000,
,,,0.049879600000,  -2.48000,
,,,0.049879800000,  -2.52000,
,,,0.049880000000,  -2.60000,
,,,0.049880200000,  -2.68000,
,,,0.049880400000,  -2.68000,
,,,0.049880600000,  -2.76000,
