Calibracion/Ensayo de distorsión armónica/Oscilogramas THD/TEK0010.CSV

Record Length,2.500000e+03,,   0.350000000000,  -3.20000,
Sample Interval,4.000000e-05,,   0.350040000000,  -3.20000,
Trigger Point,-8.750000000000e+03,,   0.350080000000,  -3.20000,
,,,   0.350120000000,  -3.20000,
,,,   0.350160000000,  -3.24000,
,,,   0.350200000000,  -3.24000,
Source,CH1,,   0.350240000000,  -3.20000,
Vertical Units,V,,   0.350280000000,  -3.24000,
Vertical Scale,1.000000e+00,,   0.350320000000,  -3.24000,
Vertical Offset,0.000000e+00,,   0.350360000000,  -3.24000,
Horizontal Units,s,,   0.350400000000,  -3.20000,
Horizontal Scale,1.000000e-02,,   0.350440000000,  -3.20000,
Pt Fmt,Y,,   0.350480000000,  -3.20000,
Yzero,0.000000e+00,,   0.350520000000,  -3.20000,
Probe Atten,1.000000e+00,,   0.350560000000,  -3.20000,
Model Number,TDS2014C,,   0.350600000000,  -3.20000,
Serial Number,C013080,,   0.350640000000,  -3.20000,
Firmware Version,FV:v24.15,,   0.350680000000,  -3.20000,
,,,0.350720000000,  -3.16000,
,,,0.350760000000,  -3.16000,
,,,0.350800000000,  -3.12000,
,,,0.350840000000,  -3.16000,
,,,0.350880000000,  -3.12000,
,,,0.350920000000,  -3.12000,
,,,0.350960000000,  -3.12000,
,,,0.351000000000,  -3.08000,
,,,0.351040000000,  -3.08000,
,,,0.351080000000,  -3.04000,
,,,0.351120000000,  -3.00000,
,,,0.351160000000,  -3.00000,
,,,0.351200000000,  -3.04000,
,,,0.351240000000,  -3.00000,
,,,0.351280000000,  -2.96000,
,,,0.351320000000,  -2.92000,
,,,0.351360000000,  -2.92000,
,,,0.351400000000,  -2.88000,
,,,0.351440000000,  -2.88000,
,,,0.351480000000,  -2.84000,
,,,0.351520000000,  -2.80000,
,,,0.351560000000,  -2.76000,
,,,0.351600000000,  -2.76000,
,,,0.351640000000,  -2.76000,
,,,0.351680000000,  -2.72000,
,,,0.351720000000,  -2.68000,
,,,0.351760000000,  -2.64000,
,,,0.351800000000,  -2.64000,
,,,0.351840000000,  -2.60000,
,,,0.351880000000,  -2.56000,
,,,0.351920000000,  -2.52000,
,,,0.351960000000,  -2.52000,
,,,0.352000000000,  -2.48000,
,,,0.352040000000,  -2.44000,
,,,0.352080000000,  -2.40000,
,,,0.352120000000,  -2.36000,
,,,0.352160000000,  -2.32000,
,,,0.352200000000,  -2.28000,
,,,0.352240000000,  -2.28000,
,,,0.352280000000,  -2.24000,
,,,0.352320000000,  -2.20000,
,,,0.352360000000,  -2.16000,
,,,0.352400000000,  -2.12000,
,,,0.352440000000,  -2.04000,
,,,0.352480000000,  -2.04000,
,,,0.352520000000,  -2.00000,
,,,0.352560000000,  -1.96000,
,,,0.352600000000,  -1.92000,
,,,0.352640000000,  -1.88000,
,,,0.352680000000,  -1.84000,
,,,0.352720000000,  -1.76000,
,,,0.352760000000,  -1.72000,
,,,0.352800000000,  -1.68000,
,,,0.352840000000,  -1.64000,
,,,0.352880000000,  -1.56000,
,,,0.352920000000,  -1.52000,
,,,0.352960000000,  -1.48000,
,,,0.353000000000,  -1.44000,
,,,0.353040000000,  -1.36000,
,,,0.353080000000,  -1.32000,
,,,0.353120000000,  -1.32000,
,,,0.353160000000,  -1.28000,
,,,0.353200000000,  -1.20000,
,,,0.353240000000,  -1.20000,
,,,0.353280000000,  -1.12000,
,,,0.353320000000,  -1.04000,
,,,0.353360000000,  -1.00000,
,,,0.353400000000,  -0.96000,
,,,0.353440000000,  -0.92000,
,,,0.353480000000,  -0.88000,
,,,0.353520000000,  -0.80000,
,,,0.353560000000,  -0.76000,
,,,0.353600000000,  -0.72000,
,,,0.353640000000,  -0.68000,
,,,0.353680000000,  -0.60000,
,,,0.353720000000,  -0.56000,
,,,0.353760000000,  -0.52000,
,,,0.353800000000,  -0.44000,
,,,0.353840000000,  -0.40000,
,,,0.353880000000,  -0.36000,
,,,0.353920000000,  -0.28000,
,,,0.353960000000,  -0.24000,
,,,0.354000000000,  -0.20000,
,,,0.354040000000,  -0.12000,
,,,0.354080000000,  -0.08000,
,,,0.354120000000,  -0.04000,
,,,0.354160000000,   0.04000,
,,,0.354200000000,   0.08000,
,,,0.354240000000,   0.12000,
,,,0.354280000000,   0.16000,
,,,0.354320000000,   0.24000,
,,,0.354360000000,   0.28000,
,,,0.354400000000,   0.32000,
,,,0.354440000000,   0.40000,
,,,0.354480000000,   0.44000,
,,,0.354520000000,   0.52000,
,,,0.354560000000,   0.56000,
,,,0.354600000000,   0.56000,
,,,0.354640000000,   0.64000,
,,,0.354680000000,   0.72000,
,,,0.354720000000,   0.76000,
,,,0.354760000000,   0.80000,
,,,0.354800000000,   0.84000,
,,,0.354840000000,   0.88000,
,,,0.354880000000,   0.96000,
,,,0.354920000000,   1.00000,
,,,0.354960000000,   1.04000,
,,,0.355000000000,   1.08000,
,,,0.355040000000,   1.12000,
,,,0.355080000000,   1.20000,
,,,0.355120000000,   1.24000,
,,,0.355160000000,   1.32000,
,,,0.355200000000,   1.36000,
,,,0.355240000000,   1.40000,
,,,0.355280000000,   1.48000,
,,,0.355320000000,   1.48000,
,,,0.355360000000,   1.56000,
,,,0.355400000000,   1.56000,
,,,0.355440000000,   1.60000,
,,,0.355480000000,   1.68000,
,,,0.355520000000,   1.72000,
,,,0.355560000000,   1.76000,
,,,0.355600000000,   1.80000,
,,,0.355640000000,   1.88000,
,,,0.355680000000,   1.88000,
,,,0.355720000000,   1.96000,
,,,0.355760000000,   2.00000,
,,,0.355800000000,   2.00000,
,,,0.355840000000,   2.08000,
,,,0.355880000000,   2.08000,
,,,0.355920000000,   2.12000,
,,,0.355960000000,   2.20000,
,,,0.356000000000,   2.20000,
,,,0.356040000000,   2.28000,
,,,0.356080000000,   2.28000,
,,,0.356120000000,   2.28000,
,,,0.356160000000,   2.36000,
,,,0.356200000000,   2.40000,
,,,0.356240000000,   2.48000,
,,,0.356280000000,   2.44000,
,,,0.356320000000,   2.52000,
,,,0.356360000000,   2.56000,
,,,0.356400000000,   2.56000,
,,,0.356440000000,   2.60000,
,,,0.356480000000,   2.64000,
,,,0.356520000000,   2.68000,
,,,0.356560000000,   2.68000,
,,,0.356600000000,   2.72000,
,,,0.356640000000,   2.72000,
,,,0.356680000000,   2.76000,
,,,0.356720000000,   2.76000,
,,,0.356760000000,   2.80000,
,,,0.356800000000,   2.84000,
,,,0.356840000000,   2.88000,
,,,0.356880000000,   2.92000,
,,,0.356920000000,   2.96000,
,,,0.356960000000,   2.96000,
,,,0.357000000000,   2.96000,
,,,0.357040000000,   3.00000,
,,,0.357080000000,   3.00000,
,,,0.357120000000,   3.04000,
,,,0.357160000000,   3.04000,
,,,0.357200000000,   3.04000,
,,,0.357240000000,   3.08000,
,,,0.357280000000,   3.08000,
,,,0.357320000000,   3.12000,
,,,0.357360000000,   3.12000,
,,,0.357400000000,   3.12000,
,,,0.357440000000,   3.16000,
,,,0.357480000000,   3.16000,
,,,0.357520000000,   3.16000,
,,,0.357560000000,   3.20000,
,,,0.357600000000,   3.20000,
,,,0.357640000000,   3.20000,
,,,0.357680000000,   3.20000,
,,,0.357720000000,   3.20000,
,,,0.357760000000,   3.20000,
,,,0.357800000000,   3.20000,
,,,0.357840000000,   3.24000,
,,,0.357880000000,   3.24000,
,,,0.357920000000,   3.24000,
,,,0.357960000000,   3.24000,
,,,0.358000000000,   3.20000,
,,,0.358040000000,   3.24000,
,,,0.358080000000,   3.24000,
,,,0.358120000000,   3.20000,
,,,0.358160000000,   3.24000,
,,,0.358200000000,   3.20000,
,,,0.358240000000,   3.20000,
,,,0.358280000000,   3.20000,
,,,0.358320000000,   3.20000,
,,,0.358360000000,   3.20000,
,,,0.358400000000,   3.20000,
,,,0.358440000000,   3.16000,
,,,0.358480000000,   3.16000,
,,,0.358520000000,   3.16000,
,,,0.358560000000,   3.16000,
,,,0.358600000000,   3.12000,
,,,0.358640000000,   3.12000,
,,,0.358680000000,   3.08000,
,,,0.358720000000,   3.08000,
,,,0.358760000000,   3.08000,
,,,0.358800000000,   3.04000,
,,,0.358840000000,   3.04000,
,,,0.358880000000,   3.00000,
,,,0.358920000000,   3.04000,
,,,0.358960000000,   2.96000,
,,,0.359000000000,   2.96000,
,,,0.359040000000,   2.96000,
,,,0.359080000000,   2.92000,
,,,0.359120000000,   2.92000,
,,,0.359160000000,   2.88000,
,,,0.359200000000,   2.84000,
,,,0.359240000000,   2.80000,
,,,0.359280000000,   2.80000,
,,,0.359320000000,   2.76000,
,,,0.359360000000,   2.72000,
,,,0.359400000000,   2.72000,
,,,0.359440000000,   2.72000,
,,,0.359480000000,   2.68000,
,,,0.359520000000,   2.64000,
,,,0.359560000000,   2.60000,
,,,0.359600000000,   2.56000,
,,,0.359640000000,   2.56000,
,,,0.359680000000,   2.52000,
,,,0.359720000000,   2.48000,
,,,0.359760000000,   2.44000,
,,,0.359800000000,   2.40000,
,,,0.359840000000,   2.36000,
,,,0.359880000000,   2.32000,
,,,0.359920000000,   2.32000,
,,,0.359960000000,   2.28000,
,,,0.360000000000,   2.20000,
,,,0.360040000000,   2.20000,
,,,0.360080000000,   2.16000,
,,,0.360120000000,   2.12000,
,,,0.360160000000,   2.04000,
,,,0.360200000000,   2.04000,
,,,0.360240000000,   1.96000,
,,,0.360280000000,   1.96000,
,,,0.360320000000,   1.88000,
,,,0.360360000000,   1.88000,
,,,0.360400000000,   1.80000,
,,,0.360440000000,   1.76000,
,,,0.360480000000,   1.72000,
,,,0.360520000000,   1.72000,
,,,0.360560000000,   1.64000,
,,,0.360600000000,   1.60000,
,,,0.360640000000,   1.56000,
,,,0.360680000000,   1.52000,
,,,0.360720000000,   1.44000,
,,,0.360760000000,   1.40000,
,,,0.360800000000,   1.36000,
,,,0.360840000000,   1.28000,
,,,0.360880000000,   1.24000,
,,,0.360920000000,   1.20000,
,,,0.360960000000,   1.16000,
,,,0.361000000000,   1.08000,
,,,0.361040000000,   1.04000,
,,,0.361080000000,   1.00000,
,,,0.361120000000,   0.96000,
,,,0.361160000000,   0.88000,
,,,0.361200000000,   0.88000,
,,,0.361240000000,   0.84000,
,,,0.361280000000,   0.76000,
,,,0.361320000000,   0.68000,
,,,0.361360000000,   0.64000,
,,,0.361400000000,   0.60000,
,,,0.361440000000,   0.56000,
,,,0.361480000000,   0.48000,
,,,0.361520000000,   0.48000,
,,,0.361560000000,   0.40000,
,,,0.361600000000,   0.32000,
,,,0.361640000000,   0.28000,
,,,0.361680000000,   0.20000,
,,,0.361720000000,   0.20000,
,,,0.361760000000,   0.12000,
,,,0.361800000000,   0.08000,
,,,0.361840000000,   0.00000,
,,,0.361880000000,   0.00000,
,,,0.361920000000,  -0.08000,
,,,0.361960000000,  -0.12000,
,,,0.362000000000,  -0.20000,
,,,0.362040000000,  -0.24000,
,,,0.362080000000,  -0.32000,
,,,0.362120000000,  -0.36000,
,,,0.362160000000,  -0.40000,
,,,0.362200000000,  -0.44000,
,,,0.362240000000,  -0.52000,
,,,0.362280000000,  -0.56000,
,,,0.362320000000,  -0.60000,
,,,0.362360000000,  -0.68000,
,,,0.362400000000,  -0.72000,
,,,0.362440000000,  -0.76000,
,,,0.362480000000,  -0.84000,
,,,0.362520000000,  -0.88000,
,,,0.362560000000,  -0.92000,
,,,0.362600000000,  -0.96000,
,,,0.362640000000,  -1.00000,
,,,0.362680000000,  -1.04000,
,,,0.362720000000,  -1.12000,
,,,0.362760000000,  -1.16000,
,,,0.362800000000,  -1.24000,
,,,0.362840000000,  -1.24000,
,,,0.362880000000,  -1.32000,
,,,0.362920000000,  -1.36000,
,,,0.362960000000,  -1.40000,
,,,0.363000000000,  -1.44000,
,,,0.363040000000,  -1.48000,
,,,0.363080000000,  -1.56000,
,,,0.363120000000,  -1.56000,
,,,0.363160000000,  -1.64000,
,,,0.363200000000,  -1.68000,
,,,0.363240000000,  -1.72000,
,,,0.363280000000,  -1.76000,
,,,0.363320000000,  -1.80000,
,,,0.363360000000,  -1.84000,
,,,0.363400000000,  -1.92000,
,,,0.363440000000,  -1.92000,
,,,0.363480000000,  -2.00000,
,,,0.363520000000,  -2.00000,
,,,0.363560000000,  -2.04000,
,,,0.363600000000,  -2.12000,
,,,0.363640000000,  -2.12000,
,,,0.363680000000,  -2.16000,
,,,0.363720000000,  -2.20000,
,,,0.363760000000,  -2.24000,
,,,0.363800000000,  -2.28000,
,,,0.363840000000,  -2.32000,
,,,0.363880000000,  -2.36000,
,,,0.363920000000,  -2.40000,
,,,0.363960000000,  -2.44000,
,,,0.364000000000,  -2.48000,
,,,0.364040000000,  -2.48000,
,,,0.364080000000,  -2.52000,
,,,0.364120000000,  -2.56000,
,,,0.364160000000,  -2.60000,
,,,0.364200000000,  -2.60000,
,,,0.364240000000,  -2.68000,
,,,0.364280000000,  -2.68000,
,,,0.364320000000,  -2.72000,
,,,0.364360000000,  -2.72000,
,,,0.364400000000,  -2.76000,
,,,0.364440000000,  -2.80000,
,,,0.364480000000,  -2.84000,
,,,0.364520000000,  -2.88000,
,,,0.364560000000,  -2.88000,
,,,0.364600000000,  -2.88000,
,,,0.364640000000,  -2.92000,
,,,0.364680000000,  -2.96000,
,,,0.364720000000,  -2.96000,
,,,0.364760000000,  -3.00000,
,,,0.364800000000,  -3.00000,
,,,0.364840000000,  -3.04000,
,,,0.364880000000,  -3.04000,
,,,0.364920000000,  -3.08000,
,,,0.364960000000,  -3.08000,
,,,0.365000000000,  -3.08000,
,,,0.365040000000,  -3.12000,
,,,0.365080000000,  -3.12000,
,,,0.365120000000,  -3.12000,
,,,0.365160000000,  -3.12000,
,,,0.365200000000,  -3.16000,
,,,0.365240000000,  -3.16000,
,,,0.365280000000,  -3.16000,
,,,0.365320000000,  -3.16000,
,,,0.365360000000,  -3.20000,
,,,0.365400000000,  -3.20000,
,,,0.365440000000,  -3.20000,
,,,0.365480000000,  -3.20000,
,,,0.365520000000,  -3.20000,
,,,0.365560000000,  -3.20000,
,,,0.365600000000,  -3.20000,
,,,0.365640000000,  -3.20000,
,,,0.365680000000,  -3.24000,
,,,0.365720000000,  -3.24000,
,,,0.365760000000,  -3.20000,
,,,0.365800000000,  -3.20000,
,,,0.365840000000,  -3.20000,
,,,0.365880000000,  -3.24000,
,,,0.365920000000,  -3.20000,
,,,0.365960000000,  -3.20000,
,,,0.366000000000,  -3.20000,
,,,0.366040000000,  -3.20000,
,,,0.366080000000,  -3.20000,
,,,0.366120000000,  -3.20000,
,,,0.366160000000,  -3.16000,
,,,0.366200000000,  -3.16000,
,,,0.366240000000,  -3.16000,
,,,0.366280000000,  -3.16000,
,,,0.366320000000,  -3.12000,
,,,0.366360000000,  -3.12000,
,,,0.366400000000,  -3.12000,
,,,0.366440000000,  -3.08000,
,,,0.366480000000,  -3.08000,
,,,0.366520000000,  -3.04000,
,,,0.366560000000,  -3.04000,
,,,0.366600000000,  -3.00000,
,,,0.366640000000,  -3.00000,
,,,0.366680000000,  -3.00000,
,,,0.366720000000,  -2.96000,
,,,0.366760000000,  -2.92000,
,,,0.366800000000,  -2.92000,
,,,0.366840000000,  -2.92000,
,,,0.366880000000,  -2.88000,
,,,0.366920000000,  -2.88000,
,,,0.366960000000,  -2.84000,
,,,0.367000000000,  -2.80000,
,,,0.367040000000,  -2.76000,
,,,0.367080000000,  -2.72000,
,,,0.367120000000,  -2.72000,
,,,0.367160000000,  -2.68000,
,,,0.367200000000,  -2.68000,
,,,0.367240000000,  -2.68000,
,,,0.367280000000,  -2.60000,
,,,0.367320000000,  -2.60000,
,,,0.367360000000,  -2.56000,
,,,0.367400000000,  -2.52000,
,,,0.367440000000,  -2.48000,
,,,0.367480000000,  -2.48000,
,,,0.367520000000,  -2.44000,
,,,0.367560000000,  -2.40000,
,,,0.367600000000,  -2.32000,
,,,0.367640000000,  -2.32000,
,,,0.367680000000,  -2.28000,
,,,0.367720000000,  -2.24000,
,,,0.367760000000,  -2.20000,
,,,0.367800000000,  -2.16000,
,,,0.367840000000,  -2.12000,
,,,0.367880000000,  -2.08000,
,,,0.367920000000,  -2.04000,
,,,0.367960000000,  -2.00000,
,,,0.368000000000,  -1.96000,
,,,0.368040000000,  -1.92000,
,,,0.368080000000,  -1.88000,
,,,0.368120000000,  -1.84000,
,,,0.368160000000,  -1.80000,
,,,0.368200000000,  -1.76000,
,,,0.368240000000,  -1.68000,
,,,0.368280000000,  -1.64000,
,,,0.368320000000,  -1.60000,
,,,0.368360000000,  -1.56000,
,,,0.368400000000,  -1.52000,
,,,0.368440000000,  -1.44000,
,,,0.368480000000,  -1.40000,
,,,0.368520000000,  -1.36000,
,,,0.368560000000,  -1.32000,
,,,0.368600000000,  -1.28000,
,,,0.368640000000,  -1.20000,
,,,0.368680000000,  -1.16000,
,,,0.368720000000,  -1.16000,
,,,0.368760000000,  -1.08000,
,,,0.368800000000,  -1.04000,
,,,0.368840000000,  -0.96000,
,,,0.368880000000,  -0.92000,
,,,0.368920000000,  -0.88000,
,,,0.368960000000,  -0.84000,
,,,0.369000000000,  -0.80000,
,,,0.369040000000,  -0.72000,
,,,0.369080000000,  -0.68000,
,,,0.369120000000,  -0.64000,
,,,0.369160000000,  -0.60000,
,,,0.369200000000,  -0.52000,
,,,0.369240000000,  -0.48000,
,,,0.369280000000,  -0.40000,
,,,0.369320000000,  -0.40000,
,,,0.369360000000,  -0.32000,
,,,0.369400000000,  -0.24000,
,,,0.369440000000,  -0.20000,
,,,0.369480000000,  -0.12000,
,,,0.369520000000,  -0.08000,
,,,0.369560000000,  -0.04000,
,,,0.369600000000,   0.00000,
,,,0.369640000000,   0.08000,
,,,0.369680000000,   0.12000,
,,,0.369720000000,   0.16000,
,,,0.369760000000,   0.24000,
,,,0.369800000000,   0.28000,
,,,0.369840000000,   0.32000,
,,,0.369880000000,   0.36000,
,,,0.369920000000,   0.44000,
,,,0.369960000000,   0.48000,
,,,0.370000000000,   0.52000,
,,,0.370040000000,   0.60000,
,,,0.370080000000,   0.64000,
,,,0.370120000000,   0.72000,
,,,0.370160000000,   0.72000,
,,,0.370200000000,   0.80000,
,,,0.370240000000,   0.84000,
,,,0.370280000000,   0.88000,
,,,0.370320000000,   0.96000,
,,,0.370360000000,   1.00000,
,,,0.370400000000,   1.04000,
,,,0.370440000000,   1.08000,
,,,0.370480000000,   1.12000,
,,,0.370520000000,   1.16000,
,,,0.370560000000,   1.24000,
,,,0.370600000000,   1.32000,
,,,0.370640000000,   1.32000,
,,,0.370680000000,   1.36000,
,,,0.370720000000,   1.44000,
,,,0.370760000000,   1.48000,
,,,0.370800000000,   1.56000,
,,,0.370840000000,   1.56000,
,,,0.370880000000,   1.64000,
,,,0.370920000000,   1.68000,
,,,0.370960000000,   1.72000,
,,,0.371000000000,   1.76000,
,,,0.371040000000,   1.80000,
,,,0.371080000000,   1.84000,
,,,0.371120000000,   1.88000,
,,,0.371160000000,   1.92000,
,,,0.371200000000,   1.96000,
,,,0.371240000000,   2.00000,
,,,0.371280000000,   2.04000,
,,,0.371320000000,   2.12000,
,,,0.371360000000,   2.12000,
,,,0.371400000000,   2.20000,
,,,0.371440000000,   2.20000,
,,,0.371480000000,   2.24000,
,,,0.371520000000,   2.28000,
,,,0.371560000000,   2.32000,
,,,0.371600000000,   2.36000,
,,,0.371640000000,   2.40000,
,,,0.371680000000,   2.44000,
,,,0.371720000000,   2.44000,
,,,0.371760000000,   2.48000,
,,,0.371800000000,   2.52000,
,,,0.371840000000,   2.56000,
,,,0.371880000000,   2.60000,
,,,0.371920000000,   2.60000,
,,,0.371960000000,   2.64000,
,,,0.372000000000,   2.68000,
,,,0.372040000000,   2.68000,
,,,0.372080000000,   2.72000,
,,,0.372120000000,   2.76000,
,,,0.372160000000,   2.80000,
,,,0.372200000000,   2.84000,
,,,0.372240000000,   2.84000,
,,,0.372280000000,   2.88000,
,,,0.372320000000,   2.92000,
,,,0.372360000000,   2.92000,
,,,0.372400000000,   2.92000,
,,,0.372440000000,   2.96000,
,,,0.372480000000,   2.96000,
,,,0.372520000000,   3.00000,
,,,0.372560000000,   3.04000,
,,,0.372600000000,   3.04000,
,,,0.372640000000,   3.08000,
,,,0.372680000000,   3.08000,
,,,0.372720000000,   3.08000,
,,,0.372760000000,   3.08000,
,,,0.372800000000,   3.12000,
,,,0.372840000000,   3.12000,
,,,0.372880000000,   3.16000,
,,,0.372920000000,   3.16000,
,,,0.372960000000,   3.16000,
,,,0.373000000000,   3.16000,
,,,0.373040000000,   3.20000,
,,,0.373080000000,   3.20000,
,,,0.373120000000,   3.16000,
,,,0.373160000000,   3.20000,
,,,0.373200000000,   3.20000,
,,,0.373240000000,   3.20000,
,,,0.373280000000,   3.20000,
,,,0.373320000000,   3.24000,
,,,0.373360000000,   3.24000,
,,,0.373400000000,   3.24000,
,,,0.373440000000,   3.24000,
,,,0.373480000000,   3.24000,
,,,0.373520000000,   3.24000,
,,,0.373560000000,   3.24000,
,,,0.373600000000,   3.24000,
,,,0.373640000000,   3.24000,
,,,0.373680000000,   3.20000,
,,,0.373720000000,   3.20000,
,,,0.373760000000,   3.20000,
,,,0.373800000000,   3.20000,
,,,0.373840000000,   3.20000,
,,,0.373880000000,   3.20000,
,,,0.373920000000,   3.16000,
,,,0.373960000000,   3.16000,
,,,0.374000000000,   3.12000,
,,,0.374040000000,   3.12000,
,,,0.374080000000,   3.12000,
,,,0.374120000000,   3.08000,
,,,0.374160000000,   3.08000,
,,,0.374200000000,   3.08000,
,,,0.374240000000,   3.08000,
,,,0.374280000000,   3.04000,
,,,0.374320000000,   3.00000,
,,,0.374360000000,   3.00000,
,,,0.374400000000,   2.96000,
,,,0.374440000000,   2.96000,
,,,0.374480000000,   2.96000,
,,,0.374520000000,   2.92000,
,,,0.374560000000,   2.92000,
,,,0.374600000000,   2.88000,
,,,0.374640000000,   2.84000,
,,,0.374680000000,   2.84000,
,,,0.374720000000,   2.80000,
,,,0.374760000000,   2.76000,
,,,0.374800000000,   2.76000,
,,,0.374840000000,   2.72000,
,,,0.374880000000,   2.68000,
,,,0.374920000000,   2.64000,
,,,0.374960000000,   2.60000,
,,,0.375000000000,   2.60000,
,,,0.375040000000,   2.56000,
,,,0.375080000000,   2.56000,
,,,0.375120000000,   2.52000,
,,,0.375160000000,   2.48000,
,,,0.375200000000,   2.44000,
,,,0.375240000000,   2.40000,
,,,0.375280000000,   2.40000,
,,,0.375320000000,   2.32000,
,,,0.375360000000,   2.32000,
,,,0.375400000000,   2.28000,
,,,0.375440000000,   2.20000,
,,,0.375480000000,   2.20000,
,,,0.375520000000,   2.16000,
,,,0.375560000000,   2.12000,
,,,0.375600000000,   2.08000,
,,,0.375640000000,   2.04000,
,,,0.375680000000,   2.00000,
,,,0.375720000000,   1.96000,
,,,0.375760000000,   1.92000,
,,,0.375800000000,   1.88000,
,,,0.375840000000,   1.84000,
,,,0.375880000000,   1.80000,
,,,0.375920000000,   1.72000,
,,,0.375960000000,   1.68000,
,,,0.376000000000,   1.64000,
,,,0.376040000000,   1.60000,
,,,0.376080000000,   1.56000,
,,,0.376120000000,   1.52000,
