Calibracion/Ensayo de distorsión armónica/Oscilogramas THD/TEK0016.CSV

Record Length,2.500000e+03,,   0.397500000000,  -1.76000,
Sample Interval,2.000000e-06,,   0.397502000000,  -1.64000,
Trigger Point,-1.987500000000e+05,,   0.397504000000,  -1.60000,
,,,   0.397506000000,  -1.56000,
,,,   0.397508000000,  -1.52000,
,,,   0.397510000000,  -1.44000,
Source,CH1,,   0.397512000000,  -1.40000,
Vertical Units,V,,   0.397514000000,  -1.36000,
Vertical Scale,1.000000e+00,,   0.397516000000,  -1.28000,
Vertical Offset,0.000000e+00,,   0.397518000000,  -1.24000,
Horizontal Units,s,,   0.397520000000,  -1.20000,
Horizontal Scale,5.000000e-04,,   0.397522000000,  -1.12000,
Pt Fmt,Y,,   0.397524000000,  -1.08000,
Yzero,0.000000e+00,,   0.397526000000,  -1.04000,
Probe Atten,1.000000e+00,,   0.397528000000,  -0.96000,
Model Number,TDS2014C,,   0.397530000000,  -0.88000,
Serial Number,C013080,,   0.397532000000,  -0.84000,
Firmware Version,FV:v24.15,,   0.397534000000,  -0.76000,
,,,0.397536000000,  -0.72000,
,,,0.397538000000,  -0.68000,
,,,0.397540000000,  -0.64000,
,,,0.397542000000,  -0.52000,
,,,0.397544000000,  -0.48000,
,,,0.397546000000,  -0.44000,
,,,0.397548000000,  -0.40000,
,,,0.397550000000,  -0.32000,
,,,0.397552000000,  -0.24000,
,,,0.397554000000,  -0.20000,
,,,0.397556000000,  -0.16000,
,,,0.397558000000,  -0.08000,
,,,0.397560000000,   0.00000,
,,,0.397562000000,   0.04000,
,,,0.397564000000,   0.12000,
,,,0.397566000000,   0.20000,
,,,0.397568000000,   0.20000,
,,,0.397570000000,   0.32000,
,,,0.397572000000,   0.32000,
,,,0.397574000000,   0.40000,
,,,0.397576000000,   0.48000,
,,,0.397578000000,   0.52000,
,,,0.397580000000,   0.60000,
,,,0.397582000000,   0.64000,
,,,0.397584000000,   0.72000,
,,,0.397586000000,   0.76000,
,,,0.397588000000,   0.84000,
,,,0.397590000000,   0.88000,
,,,0.397592000000,   0.96000,
,,,0.397594000000,   1.00000,
,,,0.397596000000,   1.04000,
,,,0.397598000000,   1.12000,
,,,0.397600000000,   1.12000,
,,,0.397602000000,   1.20000,
,,,0.397604000000,   1.28000,
,,,0.397606000000,   1.32000,
,,,0.397608000000,   1.40000,
,,,0.397610000000,   1.44000,
,,,0.397612000000,   1.48000,
,,,0.397614000000,   1.56000,
,,,0.397616000000,   1.60000,
,,,0.397618000000,   1.68000,
,,,0.397620000000,   1.72000,
,,,0.397622000000,   1.76000,
,,,0.397624000000,   1.80000,
,,,0.397626000000,   1.84000,
,,,0.397628000000,   1.92000,
,,,0.397630000000,   1.92000,
,,,0.397632000000,   2.00000,
,,,0.397634000000,   2.04000,
,,,0.397636000000,   2.08000,
,,,0.397638000000,   2.12000,
,,,0.397640000000,   2.20000,
,,,0.397642000000,   2.20000,
,,,0.397644000000,   2.24000,
,,,0.397646000000,   2.32000,
,,,0.397648000000,   2.36000,
,,,0.397650000000,   2.40000,
,,,0.397652000000,   2.40000,
,,,0.397654000000,   2.48000,
,,,0.397656000000,   2.52000,
,,,0.397658000000,   2.52000,
,,,0.397660000000,   2.56000,
,,,0.397662000000,   2.60000,
,,,0.397664000000,   2.64000,
,,,0.397666000000,   2.68000,
,,,0.397668000000,   2.72000,
,,,0.397670000000,   2.76000,
,,,0.397672000000,   2.80000,
,,,0.397674000000,   2.80000,
,,,0.397676000000,   2.84000,
,,,0.397678000000,   2.88000,
,,,0.397680000000,   2.92000,
,,,0.397682000000,   2.92000,
,,,0.397684000000,   2.92000,
,,,0.397686000000,   2.96000,
,,,0.397688000000,   3.00000,
,,,0.397690000000,   3.00000,
,,,0.397692000000,   3.04000,
,,,0.397694000000,   3.08000,
,,,0.397696000000,   3.08000,
,,,0.397698000000,   3.08000,
,,,0.397700000000,   3.12000,
,,,0.397702000000,   3.12000,
,,,0.397704000000,   3.12000,
,,,0.397706000000,   3.16000,
,,,0.397708000000,   3.16000,
,,,0.397710000000,   3.20000,
,,,0.397712000000,   3.20000,
,,,0.397714000000,   3.20000,
,,,0.397716000000,   3.20000,
,,,0.397718000000,   3.20000,
,,,0.397720000000,   3.20000,
,,,0.397722000000,   3.20000,
,,,0.397724000000,   3.20000,
,,,0.397726000000,   3.24000,
,,,0.397728000000,   3.20000,
,,,0.397730000000,   3.24000,
,,,0.397732000000,   3.24000,
,,,0.397734000000,   3.24000,
,,,0.397736000000,   3.24000,
,,,0.397738000000,   3.20000,
,,,0.397740000000,   3.20000,
,,,0.397742000000,   3.20000,
,,,0.397744000000,   3.20000,
,,,0.397746000000,   3.20000,
,,,0.397748000000,   3.20000,
,,,0.397750000000,   3.16000,
,,,0.397752000000,   3.16000,
,,,0.397754000000,   3.12000,
,,,0.397756000000,   3.16000,
,,,0.397758000000,   3.12000,
,,,0.397760000000,   3.12000,
,,,0.397762000000,   3.08000,
,,,0.397764000000,   3.04000,
,,,0.397766000000,   3.04000,
,,,0.397768000000,   3.04000,
,,,0.397770000000,   3.00000,
,,,0.397772000000,   3.00000,
,,,0.397774000000,   2.96000,
,,,0.397776000000,   2.92000,
,,,0.397778000000,   2.88000,
,,,0.397780000000,   2.88000,
,,,0.397782000000,   2.84000,
,,,0.397784000000,   2.80000,
,,,0.397786000000,   2.76000,
,,,0.397788000000,   2.76000,
,,,0.397790000000,   2.72000,
,,,0.397792000000,   2.72000,
,,,0.397794000000,   2.68000,
,,,0.397796000000,   2.60000,
,,,0.397798000000,   2.60000,
,,,0.397800000000,   2.56000,
,,,0.397802000000,   2.52000,
,,,0.397804000000,   2.48000,
,,,0.397806000000,   2.44000,
,,,0.397808000000,   2.40000,
,,,0.397810000000,   2.36000,
,,,0.397812000000,   2.32000,
,,,0.397814000000,   2.32000,
,,,0.397816000000,   2.24000,
,,,0.397818000000,   2.20000,
,,,0.397820000000,   2.16000,
,,,0.397822000000,   2.12000,
,,,0.397824000000,   2.08000,
,,,0.397826000000,   2.00000,
,,,0.397828000000,   1.96000,
,,,0.397830000000,   1.96000,
,,,0.397832000000,   1.88000,
,,,0.397834000000,   1.84000,
,,,0.397836000000,   1.76000,
,,,0.397838000000,   1.72000,
,,,0.397840000000,   1.68000,
,,,0.397842000000,   1.64000,
,,,0.397844000000,   1.56000,
,,,0.397846000000,   1.52000,
,,,0.397848000000,   1.48000,
,,,0.397850000000,   1.40000,
,,,0.397852000000,   1.36000,
,,,0.397854000000,   1.32000,
,,,0.397856000000,   1.24000,
,,,0.397858000000,   1.20000,
,,,0.397860000000,   1.16000,
,,,0.397862000000,   1.08000,
,,,0.397864000000,   1.00000,
,,,0.397866000000,   1.00000,
,,,0.397868000000,   0.88000,
,,,0.397870000000,   0.84000,
,,,0.397872000000,   0.80000,
,,,0.397874000000,   0.72000,
,,,0.397876000000,   0.68000,
,,,0.397878000000,   0.64000,
,,,0.397880000000,   0.56000,
,,,0.397882000000,   0.48000,
,,,0.397884000000,   0.44000,
,,,0.397886000000,   0.36000,
,,,0.397888000000,   0.32000,
,,,0.397890000000,   0.24000,
,,,0.397892000000,   0.20000,
,,,0.397894000000,   0.12000,
,,,0.397896000000,   0.08000,
,,,0.397898000000,   0.04000,
,,,0.397900000000,  -0.04000,
,,,0.397902000000,  -0.08000,
,,,0.397904000000,  -0.16000,
,,,0.397906000000,  -0.20000,
,,,0.397908000000,  -0.28000,
,,,0.397910000000,  -0.36000,
,,,0.397912000000,  -0.40000,
,,,0.397914000000,  -0.48000,
,,,0.397916000000,  -0.52000,
,,,0.397918000000,  -0.56000,
,,,0.397920000000,  -0.64000,
,,,0.397922000000,  -0.72000,
,,,0.397924000000,  -0.76000,
,,,0.397926000000,  -0.80000,
,,,0.397928000000,  -0.88000,
,,,0.397930000000,  -0.96000,
,,,0.397932000000,  -0.96000,
,,,0.397934000000,  -1.04000,
,,,0.397936000000,  -1.08000,
,,,0.397938000000,  -1.16000,
,,,0.397940000000,  -1.20000,
,,,0.397942000000,  -1.28000,
,,,0.397944000000,  -1.32000,
,,,0.397946000000,  -1.36000,
,,,0.397948000000,  -1.40000,
,,,0.397950000000,  -1.48000,
,,,0.397952000000,  -1.56000,
,,,0.397954000000,  -1.60000,
,,,0.397956000000,  -1.64000,
,,,0.397958000000,  -1.68000,
,,,0.397960000000,  -1.72000,
,,,0.397962000000,  -1.80000,
,,,0.397964000000,  -1.84000,
,,,0.397966000000,  -1.88000,
,,,0.397968000000,  -1.96000,
,,,0.397970000000,  -2.00000,
,,,0.397972000000,  -2.04000,
,,,0.397974000000,  -2.08000,
,,,0.397976000000,  -2.16000,
,,,0.397978000000,  -2.16000,
,,,0.397980000000,  -2.20000,
,,,0.397982000000,  -2.28000,
,,,0.397984000000,  -2.28000,
,,,0.397986000000,  -2.36000,
,,,0.397988000000,  -2.36000,
,,,0.397990000000,  -2.40000,
,,,0.397992000000,  -2.44000,
,,,0.397994000000,  -2.52000,
,,,0.397996000000,  -2.52000,
,,,0.397998000000,  -2.56000,
,,,0.398000000000,  -2.60000,
,,,0.398002000000,  -2.64000,
,,,0.398004000000,  -2.68000,
,,,0.398006000000,  -2.72000,
,,,0.398008000000,  -2.72000,
,,,0.398010000000,  -2.76000,
,,,0.398012000000,  -2.80000,
,,,0.398014000000,  -2.84000,
,,,0.398016000000,  -2.88000,
,,,0.398018000000,  -2.88000,
,,,0.398020000000,  -2.92000,
,,,0.398022000000,  -2.92000,
,,,0.398024000000,  -2.96000,
,,,0.398026000000,  -3.00000,
,,,0.398028000000,  -2.96000,
,,,0.398030000000,  -3.00000,
,,,0.398032000000,  -3.04000,
,,,0.398034000000,  -3.08000,
,,,0.398036000000,  -3.08000,
,,,0.398038000000,  -3.12000,
,,,0.398040000000,  -3.12000,
,,,0.398042000000,  -3.12000,
,,,0.398044000000,  -3.16000,
,,,0.398046000000,  -3.16000,
,,,0.398048000000,  -3.20000,
,,,0.398050000000,  -3.16000,
,,,0.398052000000,  -3.16000,
,,,0.398054000000,  -3.20000,
,,,0.398056000000,  -3.20000,
,,,0.398058000000,  -3.24000,
,,,0.398060000000,  -3.20000,
,,,0.398062000000,  -3.20000,
,,,0.398064000000,  -3.20000,
,,,0.398066000000,  -3.20000,
,,,0.398068000000,  -3.24000,
,,,0.398070000000,  -3.24000,
,,,0.398072000000,  -3.20000,
,,,0.398074000000,  -3.24000,
,,,0.398076000000,  -3.20000,
,,,0.398078000000,  -3.20000,
,,,0.398080000000,  -3.20000,
,,,0.398082000000,  -3.20000,
,,,0.398084000000,  -3.20000,
,,,0.398086000000,  -3.20000,
,,,0.398088000000,  -3.16000,
,,,0.398090000000,  -3.16000,
,,,0.398092000000,  -3.16000,
,,,0.398094000000,  -3.12000,
,,,0.398096000000,  -3.12000,
,,,0.398098000000,  -3.08000,
,,,0.398100000000,  -3.08000,
,,,0.398102000000,  -3.08000,
,,,0.398104000000,  -3.04000,
,,,0.398106000000,  -3.04000,
,,,0.398108000000,  -3.00000,
,,,0.398110000000,  -3.00000,
,,,0.398112000000,  -2.96000,
,,,0.398114000000,  -2.92000,
,,,0.398116000000,  -2.92000,
,,,0.398118000000,  -2.88000,
,,,0.398120000000,  -2.88000,
,,,0.398122000000,  -2.84000,
,,,0.398124000000,  -2.84000,
,,,0.398126000000,  -2.80000,
,,,0.398128000000,  -2.76000,
,,,0.398130000000,  -2.72000,
,,,0.398132000000,  -2.68000,
,,,0.398134000000,  -2.68000,
,,,0.398136000000,  -2.60000,
,,,0.398138000000,  -2.56000,
,,,0.398140000000,  -2.52000,
,,,0.398142000000,  -2.52000,
,,,0.398144000000,  -2.44000,
,,,0.398146000000,  -2.44000,
,,,0.398148000000,  -2.40000,
,,,0.398150000000,  -2.32000,
,,,0.398152000000,  -2.28000,
,,,0.398154000000,  -2.28000,
,,,0.398156000000,  -2.20000,
,,,0.398158000000,  -2.16000,
,,,0.398160000000,  -2.12000,
,,,0.398162000000,  -2.08000,
,,,0.398164000000,  -2.08000,
,,,0.398166000000,  -2.00000,
,,,0.398168000000,  -1.92000,
,,,0.398170000000,  -1.88000,
,,,0.398172000000,  -1.84000,
,,,0.398174000000,  -1.80000,
,,,0.398176000000,  -1.76000,
,,,0.398178000000,  -1.68000,
,,,0.398180000000,  -1.64000,
,,,0.398182000000,  -1.60000,
,,,0.398184000000,  -1.56000,
,,,0.398186000000,  -1.48000,
,,,0.398188000000,  -1.44000,
,,,0.398190000000,  -1.36000,
,,,0.398192000000,  -1.32000,
,,,0.398194000000,  -1.28000,
,,,0.398196000000,  -1.20000,
,,,0.398198000000,  -1.16000,
,,,0.398200000000,  -1.12000,
,,,0.398202000000,  -1.04000,
,,,0.398204000000,  -1.00000,
,,,0.398206000000,  -0.92000,
,,,0.398208000000,  -0.88000,
,,,0.398210000000,  -0.84000,
,,,0.398212000000,  -0.76000,
,,,0.398214000000,  -0.68000,
,,,0.398216000000,  -0.64000,
,,,0.398218000000,  -0.60000,
,,,0.398220000000,  -0.52000,
,,,0.398222000000,  -0.48000,
,,,0.398224000000,  -0.44000,
,,,0.398226000000,  -0.36000,
,,,0.398228000000,  -0.28000,
,,,0.398230000000,  -0.24000,
,,,0.398232000000,  -0.16000,
,,,0.398234000000,  -0.12000,
,,,0.398236000000,  -0.04000,
,,,0.398238000000,   0.04000,
,,,0.398240000000,   0.08000,
,,,0.398242000000,   0.12000,
,,,0.398244000000,   0.20000,
,,,0.398246000000,   0.28000,
,,,0.398248000000,   0.32000,
,,,0.398250000000,   0.36000,
,,,0.398252000000,   0.44000,
,,,0.398254000000,   0.48000,
,,,0.398256000000,   0.56000,
,,,0.398258000000,   0.60000,
,,,0.398260000000,   0.68000,
,,,0.398262000000,   0.72000,
,,,0.398264000000,   0.76000,
,,,0.398266000000,   0.84000,
,,,0.398268000000,   0.92000,
,,,0.398270000000,   0.96000,
,,,0.398272000000,   1.00000,
,,,0.398274000000,   1.04000,
,,,0.398276000000,   1.12000,
,,,0.398278000000,   1.16000,
,,,0.398280000000,   1.24000,
,,,0.398282000000,   1.28000,
,,,0.398284000000,   1.36000,
,,,0.398286000000,   1.40000,
,,,0.398288000000,   1.48000,
,,,0.398290000000,   1.52000,
,,,0.398292000000,   1.56000,
,,,0.398294000000,   1.60000,
,,,0.398296000000,   1.68000,
,,,0.398298000000,   1.72000,
,,,0.398300000000,   1.80000,
,,,0.398302000000,   1.84000,
,,,0.398304000000,   1.88000,
,,,0.398306000000,   1.92000,
,,,0.398308000000,   1.96000,
,,,0.398310000000,   2.00000,
,,,0.398312000000,   2.04000,
,,,0.398314000000,   2.08000,
,,,0.398316000000,   2.16000,
,,,0.398318000000,   2.20000,
,,,0.398320000000,   2.24000,
,,,0.398322000000,   2.28000,
,,,0.398324000000,   2.32000,
,,,0.398326000000,   2.36000,
,,,0.398328000000,   2.40000,
,,,0.398330000000,   2.44000,
,,,0.398332000000,   2.48000,
,,,0.398334000000,   2.52000,
,,,0.398336000000,   2.56000,
,,,0.398338000000,   2.60000,
,,,0.398340000000,   2.64000,
,,,0.398342000000,   2.64000,
,,,0.398344000000,   2.72000,
,,,0.398346000000,   2.72000,
,,,0.398348000000,   2.76000,
,,,0.398350000000,   2.80000,
,,,0.398352000000,   2.84000,
,,,0.398354000000,   2.84000,
,,,0.398356000000,   2.88000,
,,,0.398358000000,   2.92000,
,,,0.398360000000,   2.92000,
,,,0.398362000000,   2.96000,
,,,0.398364000000,   2.96000,
,,,0.398366000000,   3.00000,
,,,0.398368000000,   3.04000,
,,,0.398370000000,   3.04000,
,,,0.398372000000,   3.04000,
,,,0.398374000000,   3.08000,
,,,0.398376000000,   3.08000,
,,,0.398378000000,   3.12000,
,,,0.398380000000,   3.12000,
,,,0.398382000000,   3.16000,
,,,0.398384000000,   3.16000,
,,,0.398386000000,   3.16000,
,,,0.398388000000,   3.20000,
,,,0.398390000000,   3.20000,
,,,0.398392000000,   3.20000,
,,,0.398394000000,   3.20000,
,,,0.398396000000,   3.20000,
,,,0.398398000000,   3.20000,
,,,0.398400000000,   3.24000,
,,,0.398402000000,   3.24000,
,,,0.398404000000,   3.24000,
,,,0.398406000000,   3.24000,
,,,0.398408000000,   3.24000,
,,,0.398410000000,   3.24000,
,,,0.398412000000,   3.24000,
,,,0.398414000000,   3.24000,
,,,0.398416000000,   3.24000,
,,,0.398418000000,   3.20000,
,,,0.398420000000,   3.20000,
,,,0.398422000000,   3.20000,
,,,0.398424000000,   3.20000,
,,,0.398426000000,   3.16000,
,,,0.398428000000,   3.16000,
,,,0.398430000000,   3.12000,
,,,0.398432000000,   3.16000,
,,,0.398434000000,   3.12000,
,,,0.398436000000,   3.12000,
,,,0.398438000000,   3.08000,
,,,0.398440000000,   3.08000,
,,,0.398442000000,   3.08000,
,,,0.398444000000,   3.04000,
,,,0.398446000000,   3.00000,
,,,0.398448000000,   3.00000,
,,,0.398450000000,   3.00000,
,,,0.398452000000,   2.96000,
,,,0.398454000000,   2.92000,
,,,0.398456000000,   2.88000,
,,,0.398458000000,   2.88000,
,,,0.398460000000,   2.84000,
,,,0.398462000000,   2.80000,
,,,0.398464000000,   2.80000,
,,,0.398466000000,   2.76000,
,,,0.398468000000,   2.72000,
,,,0.398470000000,   2.68000,
,,,0.398472000000,   2.64000,
,,,0.398474000000,   2.60000,
,,,0.398476000000,   2.60000,
,,,0.398478000000,   2.56000,
,,,0.398480000000,   2.52000,
,,,0.398482000000,   2.48000,
,,,0.398484000000,   2.44000,
,,,0.398486000000,   2.40000,
,,,0.398488000000,   2.36000,
,,,0.398490000000,   2.32000,
,,,0.398492000000,   2.28000,
,,,0.398494000000,   2.24000,
,,,0.398496000000,   2.20000,
,,,0.398498000000,   2.16000,
,,,0.398500000000,   2.08000,
,,,0.398502000000,   2.08000,
,,,0.398504000000,   2.00000,
,,,0.398506000000,   1.96000,
,,,0.398508000000,   1.92000,
,,,0.398510000000,   1.88000,
,,,0.398512000000,   1.84000,
,,,0.398514000000,   1.76000,
,,,0.398516000000,   1.72000,
,,,0.398518000000,   1.68000,
,,,0.398520000000,   1.60000,
,,,0.398522000000,   1.56000,
,,,0.398524000000,   1.48000,
,,,0.398526000000,   1.44000,
,,,0.398528000000,   1.40000,
,,,0.398530000000,   1.36000,
,,,0.398532000000,   1.28000,
,,,0.398534000000,   1.24000,
,,,0.398536000000,   1.16000,
,,,0.398538000000,   1.12000,
,,,0.398540000000,   1.08000,
,,,0.398542000000,   0.96000,
,,,0.398544000000,   0.96000,
,,,0.398546000000,   0.92000,
,,,0.398548000000,   0.84000,
,,,0.398550000000,   0.76000,
,,,0.398552000000,   0.72000,
,,,0.398554000000,   0.64000,
,,,0.398556000000,   0.60000,
,,,0.398558000000,   0.56000,
,,,0.398560000000,   0.48000,
,,,0.398562000000,   0.40000,
,,,0.398564000000,   0.36000,
,,,0.398566000000,   0.28000,
,,,0.398568000000,   0.20000,
,,,0.398570000000,   0.20000,
,,,0.398572000000,   0.12000,
,,,0.398574000000,   0.08000,
,,,0.398576000000,   0.00000,
,,,0.398578000000,  -0.04000,
,,,0.398580000000,  -0.12000,
,,,0.398582000000,  -0.16000,
,,,0.398584000000,  -0.28000,
,,,0.398586000000,  -0.32000,
,,,0.398588000000,  -0.36000,
,,,0.398590000000,  -0.44000,
,,,0.398592000000,  -0.48000,
,,,0.398594000000,  -0.56000,
,,,0.398596000000,  -0.56000,
,,,0.398598000000,  -0.64000,
,,,0.398600000000,  -0.72000,
,,,0.398602000000,  -0.76000,
,,,0.398604000000,  -0.84000,
,,,0.398606000000,  -0.88000,
,,,0.398608000000,  -0.96000,
,,,0.398610000000,  -1.00000,
,,,0.398612000000,  -1.08000,
,,,0.398614000000,  -1.12000,
,,,0.398616000000,  -1.20000,
,,,0.398618000000,  -1.24000,
,,,0.398620000000,  -1.28000,
,,,0.398622000000,  -1.32000,
,,,0.398624000000,  -1.40000,
,,,0.398626000000,  -1.44000,
,,,0.398628000000,  -1.48000,
,,,0.398630000000,  -1.56000,
,,,0.398632000000,  -1.60000,
,,,0.398634000000,  -1.64000,
,,,0.398636000000,  -1.68000,
,,,0.398638000000,  -1.76000,
,,,0.398640000000,  -1.80000,
,,,0.398642000000,  -1.88000,
,,,0.398644000000,  -1.92000,
,,,0.398646000000,  -1.96000,
,,,0.398648000000,  -2.00000,
,,,0.398650000000,  -2.04000,
,,,0.398652000000,  -2.08000,
,,,0.398654000000,  -2.16000,
,,,0.398656000000,  -2.16000,
,,,0.398658000000,  -2.20000,
,,,0.398660000000,  -2.28000,
,,,0.398662000000,  -2.32000,
,,,0.398664000000,  -2.36000,
,,,0.398666000000,  -2.40000,
,,,0.398668000000,  -2.40000,
,,,0.398670000000,  -2.48000,
,,,0.398672000000,  -2.52000,
,,,0.398674000000,  -2.56000,
,,,0.398676000000,  -2.60000,
,,,0.398678000000,  -2.60000,
,,,0.398680000000,  -2.64000,
,,,0.398682000000,  -2.68000,
,,,0.398684000000,  -2.72000,
,,,0.398686000000,  -2.76000,
,,,0.398688000000,  -2.76000,
,,,0.398690000000,  -2.80000,
,,,0.398692000000,  -2.80000,
,,,0.398694000000,  -2.88000,
,,,0.398696000000,  -2.88000,
,,,0.398698000000,  -2.92000,
,,,0.398700000000,  -2.96000,
,,,0.398702000000,  -2.96000,
,,,0.398704000000,  -3.00000,
,,,0.398706000000,  -3.00000,
,,,0.398708000000,  -3.04000,
,,,0.398710000000,  -3.04000,
,,,0.398712000000,  -3.08000,
,,,0.398714000000,  -3.12000,
,,,0.398716000000,  -3.08000,
,,,0.398718000000,  -3.08000,
,,,0.398720000000,  -3.12000,
,,,0.398722000000,  -3.16000,
,,,0.398724000000,  -3.16000,
,,,0.398726000000,  -3.16000,
,,,0.398728000000,  -3.20000,
,,,0.398730000000,  -3.20000,
,,,0.398732000000,  -3.20000,
,,,0.398734000000,  -3.20000,
,,,0.398736000000,  -3.16000,
,,,0.398738000000,  -3.24000,
,,,0.398740000000,  -3.20000,
,,,0.398742000000,  -3.24000,
,,,0.398744000000,  -3.20000,
,,,0.398746000000,  -3.24000,
,,,0.398748000000,  -3.24000,
,,,0.398750000000,  -3.24000,
,,,0.398752000000,  -3.24000,
,,,0.398754000000,  -3.20000,
,,,0.398756000000,  -3.20000,
,,,0.398758000000,  -3.20000,
,,,0.398760000000,  -3.16000,
,,,0.398762000000,  -3.16000,
,,,0.398764000000,  -3.16000,
,,,0.398766000000,  -3.20000,
,,,0.398768000000,  -3.16000,
,,,0.398770000000,  -3.12000,
,,,0.398772000000,  -3.12000,
,,,0.398774000000,  -3.12000,
,,,0.398776000000,  -3.08000,
,,,0.398778000000,  -3.08000,
,,,0.398780000000,  -3.08000,
,,,0.398782000000,  -3.04000,
,,,0.398784000000,  -3.00000,
,,,0.398786000000,  -3.00000,
,,,0.398788000000,  -3.00000,
,,,0.398790000000,  -2.96000,
,,,0.398792000000,  -2.92000,
,,,0.398794000000,  -2.92000,
,,,0.398796000000,  -2.88000,
,,,0.398798000000,  -2.84000,
,,,0.398800000000,  -2.84000,
,,,0.398802000000,  -2.80000,
,,,0.398804000000,  -2.76000,
,,,0.398806000000,  -2.76000,
